LSD/LSDbruh/Aula03/Part1/simulation/qsim/AdderDemo.msim.vcd
$comment
	File created using the following command:
		vcd file AdderDemo.msim.vcd -direction
$end
$date
	Fri Mar 25 18:26:34 2022
$end
$version
	ModelSim Version 2020.1
$end
$timescale
	1ps
$end

$scope module Adder4_vlg_vec_tst $end
$var reg 1 ! carryIn $end
$var reg 4 " In0 [3:0] $end
$var reg 4 # In1 [3:0] $end
$var wire 1 $ cfin $end
$var wire 1 % sum [3] $end
$var wire 1 & sum [2] $end
$var wire 1 ' sum [1] $end
$var wire 1 ( sum [0] $end

$scope module i1 $end
$var wire 1 ) gnd $end
$var wire 1 * vcc $end
$var wire 1 + unknown $end
$var tri1 1 , devclrn $end
$var tri1 1 - devpor $end
$var tri1 1 . devoe $end
$var wire 1 / sum[0]~output_o $end
$var wire 1 0 sum[1]~output_o $end
$var wire 1 1 sum[2]~output_o $end
$var wire 1 2 sum[3]~output_o $end
$var wire 1 3 cfin~output_o $end
$var wire 1 4 In0[0]~input_o $end
$var wire 1 5 In1[0]~input_o $end
$var wire 1 6 carryIn~input_o $end
$var wire 1 7 bit0|s~0_combout $end
$var wire 1 8 In1[1]~input_o $end
$var wire 1 9 In0[1]~input_o $end
$var wire 1 : bit0|cout~0_combout $end
$var wire 1 ; bit1|s~0_combout $end
$var wire 1 < bit1|cout~0_combout $end
$var wire 1 = In0[2]~input_o $end
$var wire 1 > In1[2]~input_o $end
$var wire 1 ? bit2|s~0_combout $end
$var wire 1 @ bit2|cout~0_combout $end
$var wire 1 A In0[3]~input_o $end
$var wire 1 B In1[3]~input_o $end
$var wire 1 C bit3|s~0_combout $end
$var wire 1 D bit3|cout~0_combout $end
$upscope $end
$upscope $end
$enddefinitions $end
#0
$dumpvars
0!
b101 "
b101 #
0$
0(
1'
0&
1%
0)
1*
x+
1,
1-
1.
0/
10
01
12
03
14
15
06
07
08
09
1:
1;
0<
1=
1>
0?
1@
0A
0B
1C
0D
$end
#100000
b1101 "
b1100 "
b1 #
0>
04
1A
0@
0:
1?
17
1D
0C
02
13
1/
11
1&
1(
1$
0%
0D
1C
0;
00
12
03
0$
1%
0'
#200000
b1110 "
b1001 #
b1011 #
18
1B
19
1<
1D
0C
02
13
1@
1$
0%
0?
01
0&
1C
12
1%
#300000
b1010 #
b1111 "
14
05
#400000
b111 "
b101 "
09
0A
0<
1;
0C
02
10
0@
1'
0%
1?
11
1&
0D
1C
12
03
0$
1%
#500000
1!
b10 #
16
0B
1:
07
0C
02
0/
1<
0(
0%
0;
00
1@
0'
0?
01
0&
1C
12
1%
#600000
b11 #
b100 "
04
15
#700000
b0 "
b10 "
b10 #
05
19
0=
0:
0@
17
1;
1?
11
10
1/
1(
1'
1&
0;
0C
02
00
0'
0%
#800000
b110 #
b111 #
15
1>
1:
1@
07
0?
01
0/
0(
0&
1;
1C
12
10
1'
1%
#900000
b101 #
b11 "
b111 "
b1 #
14
1=
08
0>
17
0;
00
1/
1(
0'
