ISD/LuisISD/isd/teste21/simulation/qsim/Mux21.msim.vcd
$comment
	File created using the following command:
		vcd file Mux21.msim.vcd -direction
$end
$date
	Tue Dec 21 13:35:18 2021
$end
$version
	ModelSim Version 2020.1
$end
$timescale
	1ps
$end

$scope module Mux21_vlg_vec_tst $end
$var reg 3 ! S [2:0] $end
$var reg 1 " X0 $end
$var reg 1 # X1 $end
$var reg 1 $ X2 $end
$var reg 1 % X3 $end
$var reg 1 & X4 $end
$var reg 1 ' X5 $end
$var reg 1 ( X6 $end
$var reg 1 ) X7 $end
$var wire 1 * Y $end

$scope module i1 $end
$var wire 1 + gnd $end
$var wire 1 , vcc $end
$var wire 1 - unknown $end
$var tri1 1 . devclrn $end
$var tri1 1 / devpor $end
$var tri1 1 0 devoe $end
$var wire 1 1 X4~input_o $end
$var wire 1 2 X5~input_o $end
$var wire 1 3 X7~input_o $end
$var wire 1 4 X6~input_o $end
$var wire 1 5 Y~output_o $end
$var wire 1 6 S[2]~input_o $end
$var wire 1 7 X2~input_o $end
$var wire 1 8 S[1]~input_o $end
$var wire 1 9 X1~input_o $end
$var wire 1 : S[0]~input_o $end
$var wire 1 ; X0~input_o $end
$var wire 1 < inst1|23~0_combout $end
$var wire 1 = X3~input_o $end
$var wire 1 > inst1|23~1_combout $end
$var wire 1 ? inst2|15~combout $end
$upscope $end
$upscope $end
$enddefinitions $end
#0
$dumpvars
b0 !
0"
0#
0$
0%
0&
0'
0(
0)
0*
0+
1,
x-
1.
1/
10
01
02
03
04
05
06
07
08
09
0:
0;
0<
0=
0>
0?
$end
#1000
1"
1;
1<
1>
#2000
1#
0"
19
0;
0<
0>
#3000
1"
1;
1<
1>
#4000
1$
0#
0"
17
09
0;
0<
0>
#5000
1"
1;
1<
1>
#6000
1#
0"
19
0;
0<
0>
#7000
1"
1;
1<
1>
#8000
1%
0$
0#
0"
1=
07
09
0;
0<
0>
#9000
1"
1;
1<
1>
#10000
1#
0"
19
0;
0<
0>
#11000
1"
1;
1<
1>
#12000
1$
0#
0"
17
09
0;
0<
0>
#13000
1"
1;
1<
1>
#14000
1#
0"
19
0;
0<
0>
#15000
1"
1;
1<
1>
#16000
1&
0%
0$
0#
0"
11
0=
07
09
0;
0<
0>
#17000
1"
1;
1<
1>
#18000
1#
0"
19
0;
0<
0>
#19000
1"
1;
1<
1>
#20000
1$
0#
0"
17
09
0;
0<
0>
#21000
1"
1;
1<
1>
#22000
1#
0"
19
0;
0<
0>
#23000
1"
1;
1<
1>
#24000
1%
0$
0#
0"
1=
07
09
0;
0<
0>
#25000
1"
1;
1<
1>
#26000
1#
0"
19
0;
0<
0>
#27000
1"
1;
1<
1>
#28000
1$
0#
0"
17
09
0;
0<
0>
#29000
1"
1;
1<
1>
#30000
1#
0"
19
0;
0<
0>
#31000
1"
1;
1<
1>
#32000
1'
0&
0%
0$
0#
0"
12
01
0=
07
09
0;
0<
0>
#33000
1"
1;
1<
1>
#34000
1#
0"
19
0;
0<
0>
#35000
1"
1;
1<
1>
#36000
1$
0#
0"
17
09
0;
0<
0>
#37000
1"
1;
1<
1>
#38000
1#
0"
19
0;
0<
0>
#39000
1"
1;
1<
1>
#40000
1%
0$
0#
0"
1=
07
09
0;
0<
0>
#41000
1"
1;
1<
1>
#42000
1#
0"
19
0;
0<
0>
#43000
1"
1;
1<
1>
#44000
1$
0#
0"
17
09
0;
0<
0>
#45000
1"
1;
1<
1>
#46000
1#
0"
19
0;
0<
0>
#47000
1"
1;
1<
1>
#48000
1&
0%
0$
0#
0"
11
0=
07
09
0;
0<
0>
#49000
1"
1;
1<
1>
#50000
1#
0"
19
0;
0<
0>
#51000
1"
1;
1<
1>
#52000
1$
0#
0"
17
09
0;
0<
0>
#53000
1"
1;
1<
1>
#54000
1#
0"
19
0;
0<
0>
#55000
1"
1;
1<
1>
#56000
1%
0$
0#
0"
1=
07
09
0;
0<
0>
#57000
1"
1;
1<
1>
#58000
1#
0"
19
0;
0<
0>
#59000
1"
1;
1<
1>
#60000
1$
0#
0"
17
09
0;
0<
0>
#61000
1"
1;
1<
1>
#62000
1#
0"
19
0;
0<
0>
#63000
1"
1;
1<
1>
#64000
1(
0'
0&
0%
0$
0#
0"
14
02
01
0=
07
09
0;
0<
0>
#65000
1"
1;
1<
1>
#66000
1#
0"
19
0;
0<
0>
#67000
1"
1;
1<
1>
#68000
1$
0#
0"
17
09
0;
0<
0>
#69000
1"
1;
1<
1>
#70000
1#
0"
19
0;
0<
0>
#71000
1"
1;
1<
1>
#72000
1%
0$
0#
0"
1=
07
09
0;
0<
0>
#73000
1"
1;
1<
1>
#74000
1#
0"
19
0;
0<
0>
#75000
1"
1;
1<
1>
#76000
1$
0#
0"
17
09
0;
0<
0>
#77000
1"
1;
1<
1>
#78000
1#
0"
19
0;
0<
0>
#79000
1"
1;
1<
1>
#80000
1&
0%
0$
0#
0"
11
0=
07
09
0;
0<
0>
#81000
1"
1;
1<
1>
#82000
1#
0"
19
0;
0<
0>
#83000
1"
1;
1<
1>
#84000
1$
0#
0"
17
09
0;
0<
0>
#85000
1"
1;
1<
1>
#86000
1#
0"
19
0;
0<
0>
#87000
1"
1;
1<
1>
#88000
1%
0$
0#
0"
1=
07
09
0;
0<
0>
#89000
1"
1;
1<
1>
#90000
1#
0"
19
0;
0<
0>
#91000
1"
1;
1<
1>
#92000
1$
0#
0"
17
09
0;
0<
0>
#93000
1"
1;
1<
1>
#94000
1#
0"
19
0;
0<
0>
#95000
1"
1;
1<
1>
#96000
1'
0&
0%
0$
0#
0"
12
01
0=
07
09
0;
0<
0>
#97000
1"
1;
1<
1>
#98000
1#
0"
19
0;
0<
0>
#99000
1"
1;
1<
1>
#100000
1$
0#
0"
17
09
0;
0<
0>
#101000
1"
1;
1<
1>
#102000
1#
0"
19
0;
0<
0>
#103000
1"
1;
1<
1>
#104000
1%
0$
0#
0"
1=
07
09
0;
0<
0>
#105000
1"
1;
1<
1>
#106000
1#
0"
19
0;
0<
0>
#107000
1"
1;
1<
1>
#108000
1$
0#
0"
17
09
0;
0<
0>
#109000
1"
1;
1<
1>
#110000
1#
0"
19
0;
0<
0>
#111000
1"
1;
1<
1>
#112000
1&
0%
0$
0#
0"
11
0=
07
09
0;
0<
0>
#113000
1"
1;
1<
1>
#114000
1#
0"
19
0;
0<
0>
#115000
1"
1;
1<
1>
#116000
1$
0#
0"
17
09
0;
0<
0>
#117000
1"
1;
1<
1>
#118000
1#
0"
19
0;
0<
0>
#119000
1"
1;
1<
1>
#120000
1%
0$
0#
0"
1=
07
09
0;
0<
0>
#121000
1"
1;
1<
1>
#122000
1#
0"
19
0;
0<
0>
#123000
1"
1;
1<
1>
#124000
1$
0#
0"
17
09
0;
0<
0>
#125000
1"
1;
1<
1>
#126000
1#
0"
19
0;
0<
0>
#127000
1"
1;
1<
1>
#128000
1)
0(
0'
0&
0%
0$
0#
0"
13
04
02
01
0=
07
09
0;
0<
0>
#129000
1"
1;
1<
1>
#130000
1#
0"
19
0;
0<
0>
#131000
1"
1;
1<
1>
#132000
1$
0#
0"
17
09
0;
0<
0>
#133000
1"
1;
1<
1>
#134000
1#
0"
19
0;
0<
0>
#135000
1"
1;
1<
1>
#136000
1%
0$
0#
0"
1=
07
09
0;
0<
0>
#137000
1"
1;
1<
1>
#138000
1#
0"
19
0;
0<
0>
#139000
1"
1;
1<
1>
#140000
1$
0#
0"
17
09
0;
0<
0>
#141000
1"
1;
1<
1>
#142000
1#
0"
19
0;
0<
0>
#143000
1"
1;
1<
1>
#144000
1&
0%
0$
0#
0"
11
0=
07
09
0;
0<
0>
#145000
1"
1;
1<
1>
#146000
1#
0"
19
0;
0<
0>
#147000
1"
1;
1<
1>
#148000
1$
0#
0"
17
09
0;
0<
0>
#149000
1"
1;
1<
1>
#150000
1#
0"
19
0;
0<
0>
#151000
1"
1;
1<
1>
#152000
1%
0$
0#
0"
1=
07
09
0;
0<
0>
#153000
1"
1;
1<
1>
#154000
1#
0"
19
0;
0<
0>
#155000
1"
1;
1<
1>
#156000
1$
0#
0"
17
09
0;
0<
0>
#157000
1"
1;
1<
1>
#158000
1#
0"
19
0;
0<
0>
#159000
1"
1;
1<
1>
#160000
1'
0&
0%
0$
0#
0"
12
01
0=
07
09
0;
0<
0>
#161000
1"
1;
1<
1>
#162000
1#
0"
19
0;
0<
0>
#163000
1"
1;
1<
1>
#164000
1$
0#
0"
17
09
0;
0<
0>
#165000
1"
1;
1<
1>
#166000
1#
0"
19
0;
0<
0>
#167000
1"
1;
1<
1>
#168000
1%
0$
0#
0"
1=
07
09
0;
0<
0>
#169000
1"
1;
1<
1>
#170000
1#
0"
19
0;
0<
0>
#171000
1"
1;
1<
1>
#172000
1$
0#
0"
17
09
0;
0<
0>
#173000
1"
1;
1<
1>
#174000
1#
0"
19
0;
0<
0>
#175000
1"
1;
1<
1>
#176000
1&
0%
0$
0#
0"
11
0=
07
09
0;
0<
0>
#177000
1"
1;
1<
1>
#178000
1#
0"
19
0;
0<
0>
#179000
1"
1;
1<
1>
#180000
1$
0#
0"
17
09
0;
0<
0>
#181000
1"
1;
1<
1>
#182000
1#
0"
19
0;
0<
0>
#183000
1"
1;
1<
1>
#184000
1%
0$
0#
0"
1=
07
09
0;
0<
0>
#185000
1"
1;
1<
1>
#186000
1#
0"
19
0;
0<
0>
#187000
1"
1;
1<
1>
#188000
1$
0#
0"
17
09
0;
0<
0>
#189000
1"
1;
1<
1>
#190000
1#
0"
19
0;
0<
0>
#191000
1"
1;
1<
1>
#192000
1(
0'
0&
0%
0$
0#
0"
14
02
01
0=
07
09
0;
0<
0>
#193000
1"
1;
1<
1>
#194000
1#
0"
19
0;
0<
0>
#195000
1"
1;
1<
1>
#196000
1$
0#
0"
17
09
0;
0<
0>
#197000
1"
1;
1<
1>
#198000
1#
0"
19
0;
0<
0>
#199000
1"
1;
1<
1>
#200000
1%
0$
0#
0"
1=
07
09
0;
0<
0>
#201000
1"
1;
1<
1>
#202000
1#
0"
19
0;
0<
0>
#203000
1"
1;
1<
1>
#204000
1$
0#
0"
17
09
0;
0<
0>
#205000
1"
1;
1<
1>
#206000
1#
0"
19
0;
0<
0>
#207000
1"
1;
1<
1>
#208000
1&
0%
0$
0#
0"
11
0=
07
09
0;
0<
0>
#209000
1"
1;
1<
1>
#210000
1#
0"
19
0;
0<
0>
#211000
1"
1;
1<
1>
#212000
1$
0#
0"
17
09
0;
0<
0>
#213000
1"
1;
1<
1>
#214000
1#
0"
19
0;
0<
0>
#215000
1"
1;
1<
1>
#216000
1%
0$
0#
0"
1=
07
09
0;
0<
0>
#217000
1"
1;
1<
1>
#218000
1#
0"
19
0;
0<
0>
#219000
1"
1;
1<
1>
#220000
1$
0#
0"
17
09
0;
0<
0>
#221000
1"
1;
1<
1>
#222000
1#
0"
19
0;
0<
0>
#223000
1"
1;
1<
1>
#224000
1'
0&
0%
0$
0#
0"
12
01
0=
07
09
0;
0<
0>
#225000
1"
1;
1<
1>
#226000
1#
0"
19
0;
0<
0>
#227000
1"
1;
1<
1>
#228000
1$
0#
0"
17
09
0;
0<
0>
#229000
1"
1;
1<
1>
#230000
1#
0"
19
0;
0<
0>
#231000
1"
1;
1<
1>
#232000
1%
0$
0#
0"
1=
07
09
0;
0<
0>
#233000
1"
1;
1<
1>
#234000
1#
0"
19
0;
0<
0>
#235000
1"
1;
1<
1>
#236000
1$
0#
0"
17
09
0;
0<
0>
#237000
1"
1;
1<
1>
#238000
1#
0"
19
0;
0<
0>
#239000
1"
1;
1<
1>
#240000
1&
0%
0$
0#
0"
11
0=
07
09
0;
0<
0>
#241000
1"
1;
1<
1>
#242000
1#
0"
19
0;
0<
0>
#243000
1"
1;
1<
1>
#244000
1$
0#
0"
17
09
0;
0<
0>
#245000
1"
1;
1<
1>
#246000
1#
0"
19
0;
0<
0>
#247000
1"
1;
1<
1>
#248000
1%
0$
0#
0"
1=
07
09
0;
0<
0>
#249000
1"
1;
1<
1>
#250000
1#
0"
19
0;
0<
0>
#251000
1"
1;
1<
1>
#252000
1$
0#
0"
17
09
0;
0<
0>
#253000
1"
1;
1<
1>
#254000
1#
0"
19
0;
0<
0>
#255000
1"
1;
1<
1>
#256000
b100 !
b110 !
b111 !
0)
0(
0'
0&
0%
0$
0#
0"
1:
18
16
03
04
02
01
0=
07
09
0;
0>
1?
15
1*
0?
05
0*
#257000
1"
1;
#258000
1#
0"
19
0;
#259000
1"
1;
#260000
1$
0#
0"
17
09
0;
#261000
1"
1;
#262000
1#
0"
19
0;
#263000
1"
1;
#264000
1%
0$
0#
0"
1=
07
09
0;
1>
1?
15
1*
#265000
1"
1;
#266000
1#
0"
19
0;
#267000
1"
1;
#268000
1$
0#
0"
17
09
0;
#269000
1"
1;
#270000
1#
0"
19
0;
#271000
1"
1;
#272000
1&
0%
0$
0#
0"
11
0=
07
09
0;
0>
0?
05
0*
#273000
1"
1;
#274000
1#
0"
19
0;
#275000
1"
1;
#276000
1$
0#
0"
17
09
0;
#277000
1"
1;
#278000
1#
0"
19
0;
#279000
1"
1;
#280000
1%
0$
0#
0"
1=
07
09
0;
1>
1?
15
1*
#281000
1"
1;
#282000
1#
0"
19
0;
#283000
1"
1;
#284000
1$
0#
0"
17
09
0;
#285000
1"
1;
#286000
1#
0"
19
0;
#287000
1"
1;
#288000
1'
0&
0%
0$
0#
0"
12
01
0=
07
09
0;
0>
0?
05
0*
#289000
1"
1;
#290000
1#
0"
19
0;
#291000
1"
1;
#292000
1$
0#
0"
17
09
0;
#293000
1"
1;
#294000
1#
0"
19
0;
#295000
1"
1;
#296000
1%
0$
0#
0"
1=
07
09
0;
1>
1?
15
1*
#297000
1"
1;
#298000
1#
0"
19
0;
#299000
1"
1;
#300000
1$
0#
0"
17
09
0;
#301000
1"
1;
#302000
1#
0"
19
0;
#303000
1"
1;
#304000
1&
0%
0$
0#
0"
11
0=
07
09
0;
0>
0?
05
0*
#305000
1"
1;
#306000
1#
0"
19
0;
#307000
1"
1;
#308000
1$
0#
0"
17
09
0;
#309000
1"
1;
#310000
1#
0"
19
0;
#311000
1"
1;
#312000
1%
0$
0#
0"
1=
07
09
0;
1>
1?
15
1*
#313000
1"
1;
#314000
1#
0"
19
0;
#315000
1"
1;
#316000
1$
0#
0"
17
09
0;
#317000
1"
1;
#318000
1#
0"
19
0;
#319000
1"
1;
#320000
1(
0'
0&
0%
0$
0#
0"
14
02
01
0=
07
09
0;
0>
0?
05
0*
#321000
1"
1;
#322000
1#
0"
19
0;
#323000
1"
1;
#324000
1$
0#
0"
17
09
0;
#325000
1"
1;
#326000
1#
0"
19
0;
#327000
1"
1;
#328000
1%
0$
0#
0"
1=
07
09
0;
1>
1?
15
1*
#329000
1"
1;
#330000
1#
0"
19
0;
#331000
1"
1;
#332000
1$
0#
0"
17
09
0;
#333000
1"
1;
#334000
1#
0"
19
0;
#335000
1"
1;
#336000
1&
0%
0$
0#
0"
11
0=
07
09
0;
0>
0?
05
0*
#337000
1"
1;
#338000
1#
0"
19
0;
#339000
1"
1;
#340000
1$
0#
0"
17
09
0;
#341000
1"
1;
#342000
1#
0"
19
0;
#343000
1"
1;
#344000
1%
0$
0#
0"
1=
07
09
0;
1>
1?
15
1*
#345000
1"
1;
#346000
1#
0"
19
0;
#347000
1"
1;
#348000
1$
0#
0"
17
09
0;
#349000
1"
1;
#350000
1#
0"
19
0;
#351000
1"
1;
#352000
1'
0&
0%
0$
0#
0"
12
01
0=
07
09
0;
0>
0?
05
0*
#353000
1"
1;
#354000
1#
0"
19
0;
#355000
1"
1;
#356000
1$
0#
0"
17
09
0;
#357000
1"
1;
#358000
1#
0"
19
0;
#359000
1"
1;
#360000
1%
0$
0#
0"
1=
07
09
0;
1>
1?
15
1*
#361000
1"
1;
#362000
1#
0"
19
0;
#363000
1"
1;
#364000
1$
0#
0"
17
09
0;
#365000
1"
1;
#366000
1#
0"
19
0;
#367000
1"
1;
#368000
1&
0%
0$
0#
0"
11
0=
07
09
0;
0>
0?
05
0*
#369000
1"
1;
#370000
1#
0"
19
0;
#371000
1"
1;
#372000
1$
0#
0"
17
09
0;
#373000
1"
1;
#374000
1#
0"
19
0;
#375000
1"
1;
#376000
1%
0$
0#
0"
1=
07
09
0;
1>
1?
15
1*
#377000
1"
1;
#378000
1#
0"
19
0;
#379000
1"
1;
#380000
1$
0#
0"
17
09
0;
#381000
1"
1;
#382000
1#
0"
19
0;
#383000
1"
1;
#384000
1)
0(
0'
0&
0%
0$
0#
0"
13
04
02
01
0=
07
09
0;
0>
0?
05
0*
#385000
1"
1;
#386000
1#
0"
19
0;
#387000
1"
1;
#388000
1$
0#
0"
17
09
0;
#389000
1"
1;
#390000
1#
0"
19
0;
#391000
1"
1;
#392000
1%
0$
0#
0"
1=
07
09
0;
1>
1?
15
1*
#393000
1"
1;
#394000
1#
0"
19
0;
#395000
1"
1;
#396000
1$
0#
0"
17
09
0;
#397000
1"
1;
#398000
1#
0"
19
0;
#399000
1"
1;
#400000
1&
0%
0$
0#
0"
11
0=
07
09
0;
0>
0?
05
0*
#401000
1"
1;
#402000
1#
0"
19
0;
#403000
1"
1;
#404000
1$
0#
0"
17
09
0;
#405000
1"
1;
#406000
1#
0"
19
0;
#407000
1"
1;
#408000
1%
0$
0#
0"
1=
07
09
0;
1>
1?
15
1*
#409000
1"
1;
#410000
1#
0"
19
0;
#411000
1"
1;
#412000
1$
0#
0"
17
09
0;
#413000
1"
1;
#414000
1#
0"
19
0;
#415000
1"
1;
#416000
1'
0&
0%
0$
0#
0"
12
01
0=
07
09
0;
0>
0?
05
0*
#417000
1"
1;
#418000
1#
0"
19
0;
#419000
1"
1;
#420000
1$
0#
0"
17
09
0;
#421000
1"
1;
#422000
1#
0"
19
0;
#423000
1"
1;
#424000
1%
0$
0#
0"
1=
07
09
0;
1>
1?
15
1*
#425000
1"
1;
#426000
1#
0"
19
0;
#427000
1"
1;
#428000
1$
0#
0"
17
09
0;
#429000
1"
1;
#430000
1#
0"
19
0;
#431000
1"
1;
#432000
1&
0%
0$
0#
0"
11
0=
07
09
0;
0>
0?
05
0*
#433000
1"
1;
#434000
1#
0"
19
0;
#435000
1"
1;
#436000
1$
0#
0"
17
09
0;
#437000
1"
1;
#438000
1#
0"
19
0;
#439000
1"
1;
#440000
1%
0$
0#
0"
1=
07
09
0;
1>
1?
15
1*
#441000
1"
1;
#442000
1#
0"
19
0;
#443000
1"
1;
#444000
1$
0#
0"
17
09
0;
#445000
1"
1;
#446000
1#
0"
19
0;
#447000
1"
1;
#448000
1(
0'
0&
0%
0$
0#
0"
14
02
01
0=
07
09
0;
0>
0?
05
0*
#449000
1"
1;
#450000
1#
0"
19
0;
#451000
1"
1;
#452000
1$
0#
0"
17
09
0;
#453000
1"
1;
#454000
1#
0"
19
0;
#455000
1"
1;
#456000
1%
0$
0#
0"
1=
07
09
0;
1>
1?
15
1*
#457000
1"
1;
#458000
1#
0"
19
0;
#459000
1"
1;
#460000
1$
0#
0"
17
09
0;
#461000
1"
1;
#462000
1#
0"
19
0;
#463000
1"
1;
#464000
1&
0%
0$
0#
0"
11
0=
07
09
0;
0>
0?
05
0*
#465000
1"
1;
#466000
1#
0"
19
0;
#467000
1"
1;
#468000
1$
0#
0"
17
09
0;
#469000
1"
1;
#470000
1#
0"
19
0;
#471000
1"
1;
#472000
1%
0$
0#
0"
1=
07
09
0;
1>
1?
15
1*
#473000
1"
1;
#474000
1#
0"
19
0;
#475000
1"
1;
#476000
1$
0#
0"
17
09
0;
#477000
1"
1;
#478000
1#
0"
19
0;
#479000
1"
1;
#480000
1'
0&
0%
0$
0#
0"
12
01
0=
07
09
0;
0>
0?
05
0*
#481000
1"
1;
#482000
1#
0"
19
0;
#483000
1"
1;
#484000
1$
0#
0"
17
09
0;
#485000
1"
1;
#486000
1#
0"
19
0;
#487000
1"
1;
#488000
1%
0$
0#
0"
1=
07
09
0;
1>
1?
15
1*
#489000
1"
1;
#490000
1#
0"
19
0;
#491000
1"
1;
#492000
1$
0#
0"
17
09
0;
#493000
1"
1;
#494000
1#
0"
19
0;
#495000
1"
1;
#496000
1&
0%
0$
0#
0"
11
0=
07
09
0;
0>
0?
05
0*
#497000
1"
1;
#498000
1#
0"
19
0;
#499000
1"
1;
#500000
1$
0#
0"
17
09
0;
#501000
1"
1;
#502000
1#
0"
19
0;
#503000
1"
1;
#504000
1%
0$
0#
0"
1=
07
09
0;
1>
1?
15
1*
#505000
1"
1;
#506000
1#
0"
19
0;
#507000
1"
1;
#508000
1$
0#
0"
17
09
0;
#509000
1"
1;
#510000
1#
0"
19
0;
#511000
1"
1;
#512000
b11 !
b1 !
b0 !
0)
0(
0'
0&
0%
0$
0#
0"
0:
08
06
03
04
02
01
0=
07
09
0;
0<
0?
05
0>
0*
#513000
1"
1;
1<
1>
#514000
1#
0"
19
0;
0<
0>
#515000
1"
1;
1<
1>
#516000
1$
0#
0"
17
09
0;
0<
0>
#517000
1"
1;
1<
1>
#518000
1#
0"
19
0;
0<
0>
#519000
1"
1;
1<
1>
#520000
1%
0$
0#
0"
1=
07
09
0;
0<
0>
#521000
1"
1;
1<
1>
#522000
1#
0"
19
0;
0<
0>
#523000
1"
1;
1<
1>
#524000
1$
0#
0"
17
09
0;
0<
0>
#525000
1"
1;
1<
1>
#526000
1#
0"
19
0;
0<
0>
#527000
1"
1;
1<
1>
#528000
1&
0%
0$
0#
0"
11
0=
07
09
0;
0<
0>
#529000
1"
1;
1<
1>
#530000
1#
0"
19
0;
0<
0>
#531000
1"
1;
1<
1>
#532000
1$
0#
0"
17
09
0;
0<
0>
#533000
1"
1;
1<
1>
#534000
1#
0"
19
0;
0<
0>
#535000
1"
1;
1<
1>
#536000
1%
0$
0#
0"
1=
07
09
0;
0<
0>
#537000
1"
1;
1<
1>
#538000
1#
0"
19
0;
0<
0>
#539000
1"
1;
1<
1>
#540000
1$
0#
0"
17
09
0;
0<
0>
#541000
1"
1;
1<
1>
#542000
1#
0"
19
0;
0<
0>
#543000
1"
1;
1<
1>
#544000
1'
0&
0%
0$
0#
0"
12
01
0=
07
09
0;
0<
0>
#545000
1"
1;
1<
1>
#546000
1#
0"
19
0;
0<
0>
#547000
1"
1;
1<
1>
#548000
1$
0#
0"
17
09
0;
0<
0>
#549000
1"
1;
1<
1>
#550000
1#
0"
19
0;
0<
0>
#551000
1"
1;
1<
1>
#552000
1%
0$
0#
0"
1=
07
09
0;
0<
0>
#553000
1"
1;
1<
1>
#554000
1#
0"
19
0;
0<
0>
#555000
1"
1;
1<
1>
#556000
1$
0#
0"
17
09
0;
0<
0>
#557000
1"
1;
1<
1>
#558000
1#
0"
19
0;
0<
0>
#559000
1"
1;
1<
1>
#560000
1&
0%
0$
0#
0"
11
0=
07
09
0;
0<
0>
#561000
1"
1;
1<
1>
#562000
1#
0"
19
0;
0<
0>
#563000
1"
1;
1<
1>
#564000
1$
0#
0"
17
09
0;
0<
0>
#565000
1"
1;
1<
1>
#566000
1#
0"
19
0;
0<
0>
#567000
1"
1;
1<
1>
#568000
1%
0$
0#
0"
1=
07
09
0;
0<
0>
#569000
1"
1;
1<
1>
#570000
1#
0"
19
0;
0<
0>
#571000
1"
1;
1<
1>
#572000
1$
0#
0"
17
09
0;
0<
0>
#573000
1"
1;
1<
1>
#574000
1#
0"
19
0;
0<
0>
#575000
1"
1;
1<
1>
#576000
1(
0'
0&
0%
0$
0#
0"
14
02
01
0=
07
09
0;
0<
0>
#577000
1"
1;
1<
1>
#578000
1#
0"
19
0;
0<
0>
#579000
1"
1;
1<
1>
#580000
1$
0#
0"
17
09
0;
0<
0>
#581000
1"
1;
1<
1>
#582000
1#
0"
19
0;
0<
0>
#583000
1"
1;
1<
1>
#584000
1%
0$
0#
0"
1=
07
09
0;
0<
0>
#585000
1"
1;
1<
1>
#586000
1#
0"
19
0;
0<
0>
#587000
1"
1;
1<
1>
#588000
1$
0#
0"
17
09
0;
0<
0>
#589000
1"
1;
1<
1>
#590000
1#
0"
19
0;
0<
0>
#591000
1"
1;
1<
1>
#592000
1&
0%
0$
0#
0"
11
0=
07
09
0;
0<
0>
#593000
1"
1;
1<
1>
#594000
1#
0"
19
0;
0<
0>
#595000
1"
1;
1<
1>
#596000
1$
0#
0"
17
09
0;
0<
0>
#597000
1"
1;
1<
1>
#598000
1#
0"
19
0;
0<
0>
#599000
1"
1;
1<
1>
#600000
1%
0$
0#
0"
1=
07
09
0;
0<
0>
#601000
1"
1;
1<
1>
#602000
1#
0"
19
0;
0<
0>
#603000
1"
1;
1<
1>
#604000
1$
0#
0"
17
09
0;
0<
0>
#605000
1"
1;
1<
1>
#606000
1#
0"
19
0;
0<
0>
#607000
1"
1;
1<
1>
#608000
1'
0&
0%
0$
0#
0"
12
01
0=
07
09
0;
0<
0>
#609000
1"
1;
1<
1>
#610000
1#
0"
19
0;
0<
0>
#611000
1"
1;
1<
1>
#612000
1$
0#
0"
17
09
0;
0<
0>
#613000
1"
1;
1<
1>
#614000
1#
0"
19
0;
0<
0>
#615000
1"
1;
1<
1>
#616000
1%
0$
0#
0"
1=
07
09
0;
0<
0>
#617000
1"
1;
1<
1>
#618000
1#
0"
19
0;
0<
0>
#619000
1"
1;
1<
1>
#620000
1$
0#
0"
17
09
0;
0<
0>
#621000
1"
1;
1<
1>
#622000
1#
0"
19
0;
0<
0>
#623000
1"
1;
1<
1>
#624000
1&
0%
0$
0#
0"
11
0=
07
09
0;
0<
0>
#625000
1"
1;
1<
1>
#626000
1#
0"
19
0;
0<
0>
#627000
1"
1;
1<
1>
#628000
1$
0#
0"
17
09
0;
0<
0>
#629000
1"
1;
1<
1>
#630000
1#
0"
19
0;
0<
0>
#631000
1"
1;
1<
1>
#632000
1%
0$
0#
0"
1=
07
09
0;
0<
0>
#633000
1"
1;
1<
1>
#634000
1#
0"
19
0;
0<
0>
#635000
1"
1;
1<
1>
#636000
1$
0#
0"
17
09
0;
0<
0>
#637000
1"
1;
1<
1>
#638000
1#
0"
19
0;
0<
0>
#639000
1"
1;
1<
1>
#640000
1)
0(
0'
0&
0%
0$
0#
0"
13
04
02
01
0=
07
09
0;
0<
0>
#641000
1"
1;
1<
1>
#642000
1#
0"
19
0;
0<
0>
#643000
1"
1;
1<
1>
#644000
1$
0#
0"
17
09
0;
0<
0>
#645000
1"
1;
1<
1>
#646000
1#
0"
19
0;
0<
0>
#647000
1"
1;
1<
1>
#648000
1%
0$
0#
0"
1=
07
09
0;
0<
0>
#649000
1"
1;
1<
1>
#650000
1#
0"
19
0;
0<
0>
#651000
1"
1;
1<
1>
#652000
1$
0#
0"
17
09
0;
0<
0>
#653000
1"
1;
1<
1>
#654000
1#
0"
19
0;
0<
0>
#655000
1"
1;
1<
1>
#656000
1&
0%
0$
0#
0"
11
0=
07
09
0;
0<
0>
#657000
1"
1;
1<
1>
#658000
1#
0"
19
0;
0<
0>
#659000
1"
1;
1<
1>
#660000
1$
0#
0"
17
09
0;
0<
0>
#661000
1"
1;
1<
1>
#662000
1#
0"
19
0;
0<
0>
#663000
1"
1;
1<
1>
#664000
1%
0$
0#
0"
1=
07
09
0;
0<
0>
#665000
1"
1;
1<
1>
#666000
1#
0"
19
0;
0<
0>
#667000
1"
1;
1<
1>
#668000
1$
0#
0"
17
09
0;
0<
0>
#669000
1"
1;
1<
1>
#670000
1#
0"
19
0;
0<
0>
#671000
1"
1;
1<
1>
#672000
1'
0&
0%
0$
0#
0"
12
01
0=
07
09
0;
0<
0>
#673000
1"
1;
1<
1>
#674000
1#
0"
19
0;
0<
0>
#675000
1"
1;
1<
1>
#676000
1$
0#
0"
17
09
0;
0<
0>
#677000
1"
1;
1<
1>
#678000
1#
0"
19
0;
0<
0>
#679000
1"
1;
1<
1>
#680000
1%
0$
0#
0"
1=
07
09
0;
0<
0>
#681000
1"
1;
1<
1>
#682000
1#
0"
19
0;
0<
0>
#683000
1"
1;
1<
1>
#684000
1$
0#
0"
17
09
0;
0<
0>
#685000
1"
1;
1<
1>
#686000
1#
0"
19
0;
0<
0>
#687000
1"
1;
1<
1>
#688000
1&
0%
0$
0#
0"
11
0=
07
09
0;
0<
0>
#689000
1"
1;
1<
1>
#690000
1#
0"
19
0;
0<
0>
#691000
1"
1;
1<
1>
#692000
1$
0#
0"
17
09
0;
0<
0>
#693000
1"
1;
1<
1>
#694000
1#
0"
19
0;
0<
0>
#695000
1"
1;
1<
1>
#696000
1%
0$
0#
0"
1=
07
09
0;
0<
0>
#697000
1"
1;
1<
1>
#698000
1#
0"
19
0;
0<
0>
#699000
1"
1;
1<
1>
#700000
1$
0#
0"
17
09
0;
0<
0>
#701000
1"
1;
1<
1>
#702000
1#
0"
19
0;
0<
0>
#703000
1"
1;
1<
1>
#704000
1(
0'
0&
0%
0$
0#
0"
14
02
01
0=
07
09
0;
0<
0>
#705000
1"
1;
1<
1>
#706000
1#
0"
19
0;
0<
0>
#707000
1"
1;
1<
1>
#708000
1$
0#
0"
17
09
0;
0<
0>
#709000
1"
1;
1<
1>
#710000
1#
0"
19
0;
0<
0>
#711000
1"
1;
1<
1>
#712000
1%
0$
0#
0"
1=
07
09
0;
0<
0>
#713000
1"
1;
1<
1>
#714000
1#
0"
19
0;
0<
0>
#715000
1"
1;
1<
1>
#716000
1$
0#
0"
17
09
0;
0<
0>
#717000
1"
1;
1<
1>
#718000
1#
0"
19
0;
0<
0>
#719000
1"
1;
1<
1>
#720000
1&
0%
0$
0#
0"
11
0=
07
09
0;
0<
0>
#721000
1"
1;
1<
1>
#722000
1#
0"
19
0;
0<
0>
#723000
1"
1;
1<
1>
#724000
1$
0#
0"
17
09
0;
0<
0>
#725000
1"
1;
1<
1>
#726000
1#
0"
19
0;
0<
0>
#727000
1"
1;
1<
1>
