LSD/LSDbruh/Aula06/Part1/Part2/simulation/qsim/AccN_Demo.msim.vcd
$comment
	File created using the following command:
		vcd file AccN_Demo.msim.vcd -direction
$end
$date
	Tue Apr 12 09:48:07 2022
$end
$version
	ModelSim Version 2020.1
$end
$timescale
	1ps
$end

$scope module RegN_vlg_vec_tst $end
$var reg 1 ! clk $end
$var reg 4 " dataIn [3:0] $end
$var reg 1 # enable $end
$var reg 1 $ reset $end
$var wire 1 % dataOut [3] $end
$var wire 1 & dataOut [2] $end
$var wire 1 ' dataOut [1] $end
$var wire 1 ( dataOut [0] $end

$scope module i1 $end
$var wire 1 ) gnd $end
$var wire 1 * vcc $end
$var wire 1 + unknown $end
$var tri1 1 , devclrn $end
$var tri1 1 - devpor $end
$var tri1 1 . devoe $end
$var wire 1 / dataOut[0]~output_o $end
$var wire 1 0 dataOut[1]~output_o $end
$var wire 1 1 dataOut[2]~output_o $end
$var wire 1 2 dataOut[3]~output_o $end
$var wire 1 3 clk~input_o $end
$var wire 1 4 dataIn[0]~input_o $end
$var wire 1 5 reset~input_o $end
$var wire 1 6 dataOut~0_combout $end
$var wire 1 7 enable~input_o $end
$var wire 1 8 dataOut[0]~1_combout $end
$var wire 1 9 dataOut[0]~reg0_q $end
$var wire 1 : dataIn[1]~input_o $end
$var wire 1 ; dataOut~2_combout $end
$var wire 1 < dataOut[1]~reg0_q $end
$var wire 1 = dataIn[2]~input_o $end
$var wire 1 > dataOut~3_combout $end
$var wire 1 ? dataOut[2]~reg0_q $end
$var wire 1 @ dataIn[3]~input_o $end
$var wire 1 A dataOut~4_combout $end
$var wire 1 B dataOut[3]~reg0_q $end
$upscope $end
$upscope $end
$enddefinitions $end
#0
$dumpvars
0!
b1000 "
1#
0$
0(
0'
0&
0%
0)
1*
x+
1,
1-
1.
0/
00
01
02
03
04
05
06
17
18
09
0:
0;
0<
0=
0>
0?
1@
1A
0B
$end
#50000
1!
13
1B
12
1%
#70000
b0 "
0@
0A
#100000
0!
03
#150000
1!
13
0B
02
0%
#180000
b1 "
14
16
#200000
0!
03
#240000
b0 "
04
06
#250000
1!
13
#300000
0!
03
#330000
b100 "
b110 "
1$
b1110 "
b1111 "
14
1:
1=
1@
15
#350000
1!
13
#400000
0!
03
#450000
1!
13
#470000
b1011 "
b1001 "
b1 "
b0 "
04
0:
0=
0@
#490000
0$
05
#500000
0!
03
#540000
b100 "
b110 "
b1110 "
b1111 "
14
1:
1=
1@
16
1;
1>
1A
#550000
1!
13
1B
1?
1<
19
1/
10
11
12
1%
1&
1'
1(
#600000
0!
03
#650000
1!
13
#700000
0!
03
#750000
1!
13
#800000
0!
03
#850000
0#
1!
07
13
08
#900000
0!
03
#950000
1!
13
