LSD/Quartus/pratica4/parte1/simulation/qsim/FlipFlopD_Demo.msim.vcd
$comment
	File created using the following command:
		vcd file FlipFlopD_Demo.msim.vcd -direction
$end
$date
	Sun Mar 12 03:15:49 2023
$end
$version
	ModelSim Version 2020.1
$end
$timescale
	1ps
$end

$scope module flipflopd_vhd_vec_tst $end
$var wire 1 ! clk $end
$var wire 1 " d $end
$var wire 1 # q $end
$var wire 1 $ reset $end
$var wire 1 % set $end

$scope module i1 $end
$var wire 1 & gnd $end
$var wire 1 ' vcc $end
$var wire 1 ( unknown $end
$var wire 1 ) devoe $end
$var wire 1 * devclrn $end
$var wire 1 + devpor $end
$var wire 1 , ww_devoe $end
$var wire 1 - ww_devclrn $end
$var wire 1 . ww_devpor $end
$var wire 1 / ww_clk $end
$var wire 1 0 ww_d $end
$var wire 1 1 ww_set $end
$var wire 1 2 ww_reset $end
$var wire 1 3 ww_q $end
$var wire 1 4 \q~output_o\ $end
$var wire 1 5 \clk~input_o\ $end
$var wire 1 6 \d~input_o\ $end
$var wire 1 7 \set~input_o\ $end
$var wire 1 8 \reset~input_o\ $end
$var wire 1 9 \q~1_combout\ $end
$var wire 1 : \q~3_combout\ $end
$var wire 1 ; \q~0_combout\ $end
$var wire 1 < \q~reg0_emulated_q\ $end
$var wire 1 = \q~2_combout\ $end
$var wire 1 > \ALT_INV_q~0_combout\ $end
$upscope $end
$upscope $end
$enddefinitions $end
#0
$dumpvars
0!
0"
0#
1$
1%
0&
1'
x(
1)
1*
1+
1,
1-
1.
0/
00
11
12
03
04
05
06
17
18
09
0:
1;
0<
0=
0>
$end
#5000
1!
1/
15
#10000
0!
1"
0/
10
16
05
1:
#15000
1!
1/
15
#20000
0!
0"
0/
00
06
05
0:
#25000
1!
1/
15
#30000
0!
1"
0/
10
16
05
1:
#35000
1!
1/
15
#40000
0!
0"
0/
00
06
05
0:
#45000
1!
1/
15
#50000
0!
1"
0/
10
16
05
1:
#55000
1!
1/
15
#60000
0!
0"
0/
00
06
05
0:
#65000
1!
1/
15
#70000
0!
1"
0/
10
16
05
1:
#75000
1!
1/
15
#80000
0!
0"
0/
00
06
05
0:
#85000
1!
1/
15
#90000
0!
1"
0/
10
16
05
1:
#95000
1!
1/
15
#100000
0!
0"
0/
00
06
05
0:
#105000
1!
1/
15
#110000
0!
1"
0/
10
16
05
1:
#115000
1!
1/
15
#120000
0!
0"
0/
00
06
05
0:
#125000
1!
1/
15
#130000
0!
1"
0/
10
16
05
1:
#135000
1!
1/
15
#140000
0!
0"
0/
00
06
05
0:
#145000
1!
1/
15
#150000
0!
1"
0/
10
16
05
1:
#155000
1!
1/
15
#160000
0!
0"
0/
00
06
05
0:
#165000
1!
1/
15
#170000
0!
1"
0/
10
16
05
1:
#175000
1!
1/
15
#180000
0!
0"
0%
0/
00
01
07
06
05
0:
#185000
1!
1/
15
#190000
0!
1"
0/
10
16
05
1:
#195000
1!
1/
15
#200000
0!
0"
0/
00
06
05
0:
#205000
1!
1/
15
#210000
0!
1"
0/
10
16
05
1:
#215000
1!
1/
15
#220000
0!
0"
0/
00
06
05
0:
#225000
1!
1/
15
#230000
0!
1"
0/
10
16
05
1:
#235000
1!
1/
15
#240000
0!
0"
0/
00
06
05
0:
#245000
1!
1/
15
#250000
0!
1"
0/
10
16
05
1:
#255000
1!
1/
15
#260000
0!
0"
0/
00
06
05
0:
#265000
1!
1/
15
#270000
0!
1"
0/
10
16
05
1:
#275000
1!
1/
15
#280000
0!
0"
0/
00
06
05
0:
#285000
1!
1/
15
#290000
0!
1"
0/
10
16
05
1:
#295000
1!
1/
15
#300000
0!
0"
0/
00
06
05
0:
#305000
1!
1/
15
#310000
0!
1"
0/
10
16
05
1:
#315000
1!
1/
15
#320000
0!
0"
0/
00
06
05
0:
#325000
1!
1/
15
#330000
0!
1"
0/
10
16
05
1:
#335000
1!
1/
15
#340000
0!
0"
1%
0$
0/
00
11
02
08
17
06
05
0:
19
1=
1:
14
13
1#
#345000
1!
1/
15
#350000
0!
1"
0/
10
16
05
0:
#355000
1!
1/
15
#360000
0!
0"
0/
00
06
05
1:
#365000
1!
1/
15
#370000
0!
1"
0/
10
16
05
0:
#375000
1!
1/
15
#380000
0!
0"
0/
00
06
05
1:
#385000
1!
1/
15
#390000
0!
1"
0/
10
16
05
0:
#395000
1!
1/
15
#400000
0!
0"
0/
00
06
05
1:
#405000
1!
1/
15
#410000
0!
1"
0/
10
16
05
0:
#415000
1!
1/
15
#420000
0!
0"
0/
00
06
05
1:
#425000
1!
1/
15
#430000
0!
1"
0/
10
16
05
0:
#435000
1!
1/
15
#440000
0!
0"
0/
00
06
05
1:
#445000
1!
1/
15
#450000
0!
1"
0/
10
16
05
0:
#455000
1!
1/
15
#460000
0!
0"
0/
00
06
05
1:
#465000
1!
1/
15
#470000
0!
1"
0/
10
16
05
0:
#475000
1!
1/
15
#480000
0!
0"
0/
00
06
05
1:
#485000
1!
1/
15
#490000
0!
1"
0/
10
16
05
0:
#495000
1!
1/
15
#500000
0!
0"
0/
00
06
05
1:
#505000
1!
1/
15
#510000
0!
1"
0/
10
16
05
0:
#515000
1!
1/
15
#520000
0!
0"
0/
00
06
05
1:
#525000
1!
1/
15
#530000
0!
1"
0/
10
16
05
0:
#535000
1!
1/
15
#540000
0!
0"
0/
00
06
05
1:
#545000
1!
1/
15
#550000
0!
1"
0%
0/
10
01
07
16
05
0:
0;
1>
#555000
1!
1/
15
#560000
0!
0"
0/
00
06
05
1:
#565000
1!
1/
15
1<
0=
04
03
0#
#570000
0!
1"
0/
10
16
05
0:
#575000
1!
1/
15
0<
1=
14
13
1#
#580000
0!
0"
0/
00
06
05
1:
#585000
1!
1/
15
1<
0=
04
03
0#
#590000
0!
1"
0/
10
16
05
0:
#595000
1!
1/
15
0<
1=
14
13
1#
#600000
0!
0"
0/
00
06
05
1:
#605000
1!
1/
15
1<
0=
04
03
0#
#610000
0!
1"
0/
10
16
05
0:
#615000
1!
1/
15
0<
1=
14
13
1#
#620000
0!
0"
0/
00
06
05
1:
#625000
1!
1/
15
1<
0=
04
03
0#
#630000
0!
1"
0/
10
16
05
0:
#635000
1!
1/
15
0<
1=
14
13
1#
#640000
0!
0"
0/
00
06
05
1:
#645000
1!
1/
15
1<
0=
04
03
0#
#650000
0!
1"
0/
10
16
05
0:
#655000
1!
1/
15
0<
1=
14
13
1#
#660000
0!
0"
0/
00
06
05
1:
#665000
1!
1/
15
1<
0=
04
03
0#
#670000
0!
1"
0/
10
16
05
0:
#675000
1!
1/
15
0<
1=
14
13
1#
#680000
0!
0"
0/
00
06
05
1:
#685000
1!
1/
15
1<
0=
04
03
0#
#690000
0!
1"
0/
10
16
05
0:
#695000
1!
1/
15
0<
1=
14
13
1#
#700000
0!
0"
0/
00
06
05
1:
#705000
1!
1/
15
1<
0=
04
03
0#
#710000
0!
1"
0/
10
16
05
0:
#715000
1!
1/
15
0<
1=
14
13
1#
#720000
0!
0"
0/
00
06
05
1:
#725000
1!
1/
15
1<
0=
04
03
0#
#730000
0!
1"
0/
10
16
05
0:
#735000
1!
1/
15
0<
1=
14
13
1#
#740000
0!
0"
0/
00
06
05
1:
#745000
1!
1/
15
1<
0=
04
03
0#
#750000
0!
1"
0/
10
16
05
0:
#755000
1!
1/
15
0<
1=
14
13
1#
#760000
0!
0"
0/
00
06
05
1:
#765000
1!
1/
15
1<
0=
04
03
0#
#770000
0!
1"
0/
10
16
05
0:
#775000
1!
1/
15
0<
1=
14
13
1#
#780000
0!
0"
0/
00
06
05
1:
#785000
1!
1/
15
1<
0=
04
03
0#
#790000
0!
1"
0/
10
16
05
0:
#795000
1!
1/
15
0<
1=
14
13
1#
#800000
0!
0"
0/
00
06
05
1:
#805000
1!
1/
15
1<
0=
04
03
0#
#810000
0!
1"
0/
10
16
05
0:
#815000
1!
1/
15
0<
1=
14
13
1#
#820000
0!
0"
0/
00
06
05
1:
#825000
1!
1/
15
1<
0=
04
03
0#
#830000
0!
1"
0/
10
16
05
0:
#835000
1!
1/
15
0<
1=
14
13
1#
#840000
0!
0"
0/
00
06
05
1:
#845000
1!
1/
15
1<
0=
04
03
0#
#850000
0!
1"
0/
10
16
05
0:
#855000
1!
1/
15
0<
1=
14
13
1#
#860000
0!
0"
0/
00
06
05
1:
#865000
1!
1/
15
1<
0=
04
03
0#
#870000
0!
1"
0/
10
16
05
0:
#875000
1!
1/
15
0<
1=
14
13
1#
#880000
0!
0"
0/
00
06
05
1:
#885000
1!
1/
15
1<
0=
04
03
0#
#890000
0!
1"
0/
10
16
05
0:
#895000
1!
1/
15
0<
1=
14
13
1#
#900000
0!
0"
0/
00
06
05
1:
#905000
1!
1/
15
1<
0=
04
03
0#
#910000
0!
1"
0/
10
16
05
0:
#915000
1!
1/
15
0<
1=
14
13
1#
#920000
0!
0"
0/
00
06
05
1:
#925000
1!
1/
15
1<
0=
04
03
0#
#930000
0!
1"
0/
10
16
05
0:
#935000
1!
1/
15
0<
1=
14
13
1#
#940000
0!
0"
0/
00
06
05
1:
#945000
1!
1/
15
1<
0=
04
03
0#
#950000
0!
1"
0/
10
16
05
0:
#955000
1!
1/
15
0<
1=
14
13
1#
#960000
0!
0"
0/
00
06
05
1:
#965000
1!
1/
15
1<
0=
04
03
0#
#970000
0!
1"
0/
10
16
05
0:
#975000
1!
1/
15
0<
1=
14
13
1#
#980000
0!
0"
0/
00
06
05
1:
#985000
1!
1/
15
1<
0=
04
03
0#
#990000
0!
1"
0/
10
16
05
0:
#995000
1!
1/
15
0<
1=
14
13
1#
