LSD/LSDbruh/Aula05/Part3/simulation/qsim/TimerN_Demo.msim.vcd
$comment
	File created using the following command:
		vcd file TimerN_Demo.msim.vcd -direction
$end
$date
	Tue Apr 12 10:57:32 2022
$end
$version
	ModelSim Version 2020.1
$end
$timescale
	1ps
$end

$scope module TimerN_vlg_vec_tst $end
$var reg 1 ! clk $end
$var reg 1 " enable $end
$var reg 1 # reset $end
$var reg 1 $ start $end
$var wire 1 % timerOut $end

$scope module i1 $end
$var wire 1 & gnd $end
$var wire 1 ' vcc $end
$var wire 1 ( unknown $end
$var tri1 1 ) devclrn $end
$var tri1 1 * devpor $end
$var tri1 1 + devoe $end
$var wire 1 , timerOut~output_o $end
$var wire 1 - clk~input_o $end
$var wire 1 . s_count[0]~32_combout $end
$var wire 1 / start~input_o $end
$var wire 1 0 s_count[1]~35 $end
$var wire 1 1 s_count[2]~38_combout $end
$var wire 1 2 enable~input_o $end
$var wire 1 3 reset~input_o $end
$var wire 1 4 s_count[0]~37_combout $end
$var wire 1 5 Equal0~10_combout $end
$var wire 1 6 s_count[0]~36_combout $end
$var wire 1 7 s_count[0]~33 $end
$var wire 1 8 s_count[1]~34_combout $end
$var wire 1 9 s_count[2]~39 $end
$var wire 1 : s_count[3]~40_combout $end
$var wire 1 ; s_count[3]~41 $end
$var wire 1 < s_count[4]~42_combout $end
$var wire 1 = s_count[4]~43 $end
$var wire 1 > s_count[5]~44_combout $end
$var wire 1 ? Equal0~0_combout $end
$var wire 1 @ s_count[5]~45 $end
$var wire 1 A s_count[6]~46_combout $end
$var wire 1 B s_count[6]~47 $end
$var wire 1 C s_count[7]~48_combout $end
$var wire 1 D s_count[7]~49 $end
$var wire 1 E s_count[8]~50_combout $end
$var wire 1 F s_count[8]~51 $end
$var wire 1 G s_count[9]~52_combout $end
$var wire 1 H Equal0~1_combout $end
$var wire 1 I s_count[9]~53 $end
$var wire 1 J s_count[10]~54_combout $end
$var wire 1 K s_count[10]~55 $end
$var wire 1 L s_count[11]~56_combout $end
$var wire 1 M s_count[11]~57 $end
$var wire 1 N s_count[12]~58_combout $end
$var wire 1 O s_count[12]~59 $end
$var wire 1 P s_count[13]~60_combout $end
$var wire 1 Q Equal0~2_combout $end
$var wire 1 R s_count[13]~61 $end
$var wire 1 S s_count[14]~62_combout $end
$var wire 1 T s_count[14]~63 $end
$var wire 1 U s_count[15]~64_combout $end
$var wire 1 V s_count[15]~65 $end
$var wire 1 W s_count[16]~66_combout $end
$var wire 1 X s_count[16]~67 $end
$var wire 1 Y s_count[17]~68_combout $end
$var wire 1 Z Equal0~3_combout $end
$var wire 1 [ Equal0~4_combout $end
$var wire 1 \ s_count[17]~69 $end
$var wire 1 ] s_count[18]~70_combout $end
$var wire 1 ^ s_count[18]~71 $end
$var wire 1 _ s_count[19]~72_combout $end
$var wire 1 ` s_count[19]~73 $end
$var wire 1 a s_count[20]~74_combout $end
$var wire 1 b s_count[20]~75 $end
$var wire 1 c s_count[21]~76_combout $end
$var wire 1 d Equal0~5_combout $end
$var wire 1 e s_count[21]~77 $end
$var wire 1 f s_count[22]~78_combout $end
$var wire 1 g s_count[22]~79 $end
$var wire 1 h s_count[23]~80_combout $end
$var wire 1 i s_count[23]~81 $end
$var wire 1 j s_count[24]~82_combout $end
$var wire 1 k s_count[24]~83 $end
$var wire 1 l s_count[25]~84_combout $end
$var wire 1 m Equal0~6_combout $end
$var wire 1 n s_count[25]~85 $end
$var wire 1 o s_count[26]~86_combout $end
$var wire 1 p s_count[26]~87 $end
$var wire 1 q s_count[27]~88_combout $end
$var wire 1 r s_count[27]~89 $end
$var wire 1 s s_count[28]~90_combout $end
$var wire 1 t s_count[28]~91 $end
$var wire 1 u s_count[29]~92_combout $end
$var wire 1 v Equal0~7_combout $end
$var wire 1 w s_count[29]~93 $end
$var wire 1 x s_count[30]~94_combout $end
$var wire 1 y s_count[30]~95 $end
$var wire 1 z s_count[31]~96_combout $end
$var wire 1 { Equal0~8_combout $end
$var wire 1 | Equal0~9_combout $end
$var wire 1 } Equal1~0_combout $end
$var wire 1 ~ timerOut~0_combout $end
$var wire 1 !! timerOut~reg0_q $end
$var wire 1 "! s_count [31] $end
$var wire 1 #! s_count [30] $end
$var wire 1 $! s_count [29] $end
$var wire 1 %! s_count [28] $end
$var wire 1 &! s_count [27] $end
$var wire 1 '! s_count [26] $end
$var wire 1 (! s_count [25] $end
$var wire 1 )! s_count [24] $end
$var wire 1 *! s_count [23] $end
$var wire 1 +! s_count [22] $end
$var wire 1 ,! s_count [21] $end
$var wire 1 -! s_count [20] $end
$var wire 1 .! s_count [19] $end
$var wire 1 /! s_count [18] $end
$var wire 1 0! s_count [17] $end
$var wire 1 1! s_count [16] $end
$var wire 1 2! s_count [15] $end
$var wire 1 3! s_count [14] $end
$var wire 1 4! s_count [13] $end
$var wire 1 5! s_count [12] $end
$var wire 1 6! s_count [11] $end
$var wire 1 7! s_count [10] $end
$var wire 1 8! s_count [9] $end
$var wire 1 9! s_count [8] $end
$var wire 1 :! s_count [7] $end
$var wire 1 ;! s_count [6] $end
$var wire 1 <! s_count [5] $end
$var wire 1 =! s_count [4] $end
$var wire 1 >! s_count [3] $end
$var wire 1 ?! s_count [2] $end
$var wire 1 @! s_count [1] $end
$var wire 1 A! s_count [0] $end
$upscope $end
$upscope $end
$enddefinitions $end
#0
$dumpvars
0!
1"
1#
0$
0%
0&
1'
x(
1)
1*
1+
0,
0-
1.
0/
10
01
12
13
14
15
16
07
08
09
0:
1;
0<
0=
0>
1?
1@
0A
0B
0C
1D
0E
0F
0G
1H
1I
0J
0K
0L
1M
0N
0O
0P
1Q
1R
0S
0T
0U
1V
0W
0X
0Y
1Z
1[
1\
0]
0^
0_
1`
0a
0b
0c
1d
1e
0f
0g
0h
1i
0j
0k
0l
1m
1n
0o
0p
0q
1r
0s
0t
0u
1v
1w
0x
0y
0z
1{
1|
0}
0~
0!!
0A!
0@!
0?!
0>!
0=!
0<!
0;!
0:!
09!
08!
07!
06!
05!
04!
03!
02!
01!
00!
0/!
0.!
0-!
0,!
0+!
0*!
0)!
0(!
0'!
0&!
0%!
0$!
0#!
0"!
$end
#25000
1!
1-
#50000
0!
0-
#75000
1!
1-
#100000
0!
0-
#110000
0#
03
04
#125000
1!
1-
#150000
0!
0-
#160000
1$
1/
06
14
#175000
1!
1-
1A!
05
17
0.
18
#180000
0$
0/
#200000
0!
0-
#225000
1!
1-
1@!
0A!
0?
00
15
07
08
1.
0[
16
04
10
11
18
0|
01
05
06
14
#250000
0!
0-
#275000
1!
1-
1A!
17
0.
00
08
11
#300000
0!
0-
#325000
1!
1-
0@!
0A!
1?!
1?
10
07
19
18
1.
01
1[
09
11
08
1:
1|
0:
#350000
0!
0-
#370000
1$
1/
#375000
1!
1-
1A!
1}
17
0.
16
1~
18
#390000
0$
0/
#400000
0!
0-
#425000
1!
1-
0A!
0?!
1!!
1,
0}
15
07
1%
1.
01
04
0~
08
#430000
0"
02
1~
#450000
0!
0-
#475000
1!
1-
#500000
0!
0-
#525000
1!
1-
#540000
1"
12
0~
#550000
0!
0-
#575000
1!
1-
0!!
0,
0%
#600000
0!
0-
#620000
1$
1/
06
14
#625000
1!
1-
1A!
05
17
0.
18
#640000
0$
0/
#650000
0!
0-
#675000
1!
1-
1@!
0A!
0?
00
15
07
08
1.
0[
16
04
10
11
18
0|
01
05
06
14
#700000
0!
0-
#725000
1!
1-
1A!
17
0.
00
08
11
#750000
0!
0-
#775000
1!
1-
0@!
0A!
1?!
1?
10
07
19
18
1.
01
1[
09
11
08
1:
1|
0:
#800000
0!
0-
#825000
1!
1-
1A!
1}
17
0.
16
1~
18
#850000
0!
0-
#875000
1!
1-
0A!
0?!
1!!
1,
0}
15
07
1%
1.
01
04
0~
08
#900000
0!
0-
#925000
1!
1-
0!!
0,
0%
#950000
0!
0-
#975000
1!
1-
