ISD/Quartus3/simulation/qsim/DecoderDemo.msim.vcd
$comment
	File created using the following command:
		vcd file DecoderDemo.msim.vcd -direction
$end
$date
	Wed Nov 09 10:57:17 2022
$end
$version
	ModelSim Version 2020.1
$end
$timescale
	1ps
$end

$scope module DecoderDemo_vlg_vec_tst $end
$var reg 1 ! E0_L $end
$var reg 1 " E1 $end
$var reg 1 # X0 $end
$var reg 1 $ X1 $end
$var wire 1 % Y0 $end
$var wire 1 & Y1 $end
$var wire 1 ' Y2 $end
$var wire 1 ( Y3 $end

$scope module i1 $end
$var wire 1 ) gnd $end
$var wire 1 * vcc $end
$var wire 1 + unknown $end
$var tri1 1 , devclrn $end
$var tri1 1 - devpor $end
$var tri1 1 . devoe $end
$var wire 1 / Y3~output_o $end
$var wire 1 0 Y2~output_o $end
$var wire 1 1 Y1~output_o $end
$var wire 1 2 Y0~output_o $end
$var wire 1 3 E1~input_o $end
$var wire 1 4 X0~input_o $end
$var wire 1 5 X1~input_o $end
$var wire 1 6 E0_L~input_o $end
$var wire 1 7 inst|inst~combout $end
$var wire 1 8 inst|inst1~combout $end
$var wire 1 9 inst|inst2~combout $end
$var wire 1 : inst|inst3~combout $end
$upscope $end
$upscope $end
$enddefinitions $end
#0
$dumpvars
0!
0"
0#
0$
0%
0&
0'
0(
0)
1*
x+
1,
1-
1.
0/
00
01
02
03
04
05
06
07
08
09
0:
$end
#10000
1!
16
#80000
0!
06
#130000
1"
1$
13
15
19
11
1&
#135000
1#
14
1:
09
01
12
1%
0&
#160000
0$
0#
05
04
0:
17
1/
02
0%
1(
#185000
1#
14
18
07
0/
10
1'
0(
#210000
1$
0#
15
04
19
08
00
11
1&
0'
#235000
1#
14
1:
09
01
12
1%
0&
#260000
0$
0#
05
04
0:
17
1/
02
0%
1(
#285000
1#
14
18
07
0/
10
1'
0(
#310000
1$
0#
15
04
19
08
00
11
1&
0'
#335000
1#
14
1:
09
01
12
1%
0&
#360000
0$
0#
05
04
0:
17
1/
02
0%
1(
#385000
1#
14
18
07
0/
10
1'
0(
#410000
1$
0#
15
04
19
08
00
11
1&
0'
#435000
1#
14
1:
09
01
12
1%
0&
#460000
0$
0#
05
04
0:
17
1/
02
0%
1(
#485000
1#
14
18
07
0/
10
1'
0(
#510000
1$
0#
15
04
19
08
00
11
1&
0'
#535000
1#
14
1:
09
01
12
1%
0&
#560000
0$
0#
05
04
0:
17
1/
02
0%
1(
#585000
1#
14
18
07
0/
10
1'
0(
#610000
1$
0#
15
04
19
08
00
11
1&
0'
#635000
1#
14
1:
09
01
12
1%
0&
#660000
0$
0#
05
04
0:
17
1/
02
0%
1(
#685000
1#
14
18
07
0/
10
1'
0(
#710000
1$
0#
15
04
19
08
00
11
1&
0'
#735000
1#
14
1:
09
01
12
1%
0&
#750000
0"
0$
0#
03
05
04
0:
02
0%
