ISD/LuisISD/isd/enunciado1/simulation/qsim/enunciado1.msim.vcd
$comment
	File created using the following command:
		vcd file enunciado1.msim.vcd -direction
$end
$date
	Tue Jan 25 23:22:16 2022
$end
$version
	ModelSim Version 2020.1
$end
$timescale
	1ps
$end

$scope module enunciado1_vlg_vec_tst $end
$var reg 1 ! CLK $end
$var reg 1 " RESET_H $end
$var wire 1 # Q [2] $end
$var wire 1 $ Q [1] $end
$var wire 1 % Q [0] $end
$var wire 1 & Y $end

$scope module i1 $end
$var wire 1 ' gnd $end
$var wire 1 ( vcc $end
$var wire 1 ) unknown $end
$var tri1 1 * devclrn $end
$var tri1 1 + devpor $end
$var tri1 1 , devoe $end
$var wire 1 - Y~output_o $end
$var wire 1 . Q[2]~output_o $end
$var wire 1 / Q[1]~output_o $end
$var wire 1 0 Q[0]~output_o $end
$var wire 1 1 RESET_H~input_o $end
$var wire 1 2 CLK~input_o $end
$var wire 1 3 inst11~0_combout $end
$var wire 1 4 inst2~q $end
$var wire 1 5 inst12~0_combout $end
$var wire 1 6 inst~q $end
$var wire 1 7 inst7~0_combout $end
$var wire 1 8 inst1~q $end
$var wire 1 9 inst19~0_combout $end
$var wire 1 : inst4~combout $end
$var wire 1 ; inst5~combout $end
$var wire 1 < inst6~0_combout $end
$upscope $end
$upscope $end
$enddefinitions $end
#0
$dumpvars
0!
0"
0%
0$
0#
1&
0'
1(
x)
1*
1+
1,
1-
0.
0/
00
01
02
13
04
05
06
07
08
19
0:
0;
0<
$end
#4000
1!
12
14
1<
15
03
10
1%
#8000
0!
02
#12000
1!
12
16
04
1;
09
0<
13
00
0-
1/
1$
0&
0%
#16000
1"
0!
11
02
0;
19
05
1-
0/
0$
1&
#20000
1!
12
06
14
#24000
0!
02
#28000
1!
12
#32000
0"
0!
01
02
1<
15
03
10
1%
#36000
1!
12
16
04
1;
09
0<
13
00
0-
1/
1$
0&
0%
#40000
0!
02
#44000
1!
12
14
1<
17
05
03
10
1%
#48000
1"
0!
11
02
0<
0;
19
07
13
1-
0/
00
0%
0$
1&
#52000
1!
12
06
#56000
0!
02
#60000
1!
12
#64000
0"
0!
01
02
1<
15
03
10
1%
#68000
1!
12
16
04
1;
09
0<
13
00
0-
1/
1$
0&
0%
#72000
0!
02
#76000
1!
12
14
1<
17
05
03
10
1%
#80000
1"
0!
11
02
0<
0;
19
07
13
1-
0/
00
0%
0$
1&
#84000
1!
12
06
#88000
0!
02
#92000
1!
12
#96000
0"
0!
01
02
1<
15
03
10
1%
#100000
1!
12
16
04
1;
09
0<
13
00
0-
1/
1$
0&
0%
#104000
0!
02
#108000
1!
12
14
1<
17
05
03
10
1%
#112000
1"
0!
11
02
0<
0;
19
07
13
1-
0/
00
0%
0$
1&
#116000
1!
12
06
#120000
0!
02
#124000
1!
12
#128000
0"
0!
01
02
1<
15
03
10
1%
#132000
1!
12
16
04
1;
09
0<
13
00
0-
1/
1$
0&
0%
#136000
0!
02
#140000
1!
12
14
1<
17
05
03
10
1%
#144000
1"
0!
11
02
0<
0;
19
07
13
1-
0/
00
0%
0$
1&
#148000
1!
12
06
#152000
0!
02
#156000
1!
12
#160000
0"
0!
01
02
1<
15
03
10
1%
#164000
1!
12
16
04
1;
09
0<
13
00
0-
1/
1$
0&
0%
#168000
0!
02
#172000
1!
12
14
1<
17
05
03
10
1%
#176000
1"
0!
11
02
0<
0;
19
07
13
1-
0/
00
0%
0$
1&
#180000
1!
12
06
#184000
0!
02
#188000
1!
12
#192000
0"
0!
01
02
1<
15
03
10
1%
#196000
1!
12
16
04
1;
09
0<
13
00
0-
1/
1$
0&
0%
#200000
0!
02
#204000
1!
12
14
1<
17
05
03
10
1%
#208000
1"
0!
11
02
0<
0;
19
07
13
1-
0/
00
0%
0$
1&
#212000
1!
12
06
#216000
0!
02
#220000
1!
12
#224000
0"
0!
01
02
1<
15
03
10
1%
#228000
1!
12
16
04
1;
09
0<
13
00
0-
1/
1$
0&
0%
#232000
0!
02
#236000
1!
12
14
1<
17
05
03
10
1%
#240000
1"
0!
11
02
0<
0;
19
07
13
1-
0/
00
0%
0$
1&
#244000
1!
12
06
#248000
0!
02
#252000
1!
12
#256000
0"
0!
01
02
1<
15
03
10
1%
#260000
1!
12
16
04
1;
09
0<
13
00
0-
1/
1$
0&
0%
#264000
0!
02
#268000
1!
12
14
1<
17
05
03
10
1%
#272000
1"
0!
11
02
0<
0;
19
07
13
1-
0/
00
0%
0$
1&
#276000
1!
12
06
#280000
0!
02
#284000
1!
12
#288000
0"
0!
01
02
1<
15
03
10
1%
#292000
1!
12
16
04
1;
09
0<
13
00
0-
1/
1$
0&
0%
#296000
0!
02
#300000
1!
12
14
1<
17
05
03
10
1%
#304000
1"
0!
11
02
0<
0;
19
07
13
1-
0/
00
0%
0$
1&
#308000
1!
12
06
#312000
0!
02
#316000
1!
12
#320000
0"
0!
01
02
1<
15
03
10
1%
#324000
1!
12
16
04
1;
09
0<
13
00
0-
1/
1$
0&
0%
#328000
0!
02
#332000
1!
12
14
1<
17
05
03
10
1%
#336000
1"
0!
11
02
0<
0;
19
07
13
1-
0/
00
0%
0$
1&
#340000
1!
12
06
#344000
0!
02
#348000
1!
12
#352000
0"
0!
01
02
1<
15
03
10
1%
#356000
1!
12
16
04
1;
09
0<
13
00
0-
1/
1$
0&
0%
#360000
0!
02
#364000
1!
12
14
1<
17
05
03
10
1%
#368000
1"
0!
11
02
0<
0;
19
07
13
1-
0/
00
0%
0$
1&
#372000
1!
12
06
#376000
0!
02
#380000
1!
12
#384000
0"
0!
01
02
1<
15
03
10
1%
#388000
1!
12
16
04
1;
09
0<
13
00
0-
1/
1$
0&
0%
#392000
0!
02
#396000
1!
12
14
1<
17
05
03
10
1%
#400000
1"
0!
11
02
0<
0;
19
07
13
1-
0/
00
0%
0$
1&
#404000
1!
12
06
#408000
0!
02
#412000
1!
12
#416000
0"
0!
01
02
1<
15
03
10
1%
#420000
1!
12
16
04
1;
09
0<
13
00
0-
1/
1$
0&
0%
#424000
0!
02
#428000
1!
12
14
1<
17
05
03
10
1%
#432000
1"
0!
11
02
0<
0;
19
07
13
1-
0/
00
0%
0$
1&
#436000
1!
12
06
#440000
0!
02
#444000
1!
12
#448000
0"
0!
01
02
1<
15
03
10
1%
#452000
1!
12
16
04
1;
09
0<
13
00
0-
1/
1$
0&
0%
#456000
0!
02
#460000
1!
12
14
1<
17
05
03
10
1%
#464000
1"
0!
11
02
0<
0;
19
07
13
1-
0/
00
0%
0$
1&
#468000
1!
12
06
#472000
0!
02
#476000
1!
12
#480000
0"
0!
01
02
1<
15
03
10
1%
#484000
1!
12
16
04
1;
09
0<
13
00
0-
1/
1$
0&
0%
#488000
0!
02
#492000
1!
12
14
1<
17
05
03
10
1%
#496000
1"
0!
11
02
0<
0;
19
07
13
1-
0/
00
0%
0$
1&
#500000
1!
12
06
#504000
0!
02
#508000
1!
12
#512000
0"
0!
01
02
1<
15
03
10
1%
#516000
1!
12
16
04
1;
09
0<
13
00
0-
1/
1$
0&
0%
#520000
0!
02
#524000
1!
12
14
1<
17
05
03
10
1%
#528000
1"
0!
11
02
0<
0;
19
07
13
1-
0/
00
0%
0$
1&
#532000
1!
12
06
#536000
0!
02
#540000
1!
12
#544000
0"
0!
01
02
1<
15
03
10
1%
#548000
1!
12
16
04
1;
09
0<
13
00
0-
1/
1$
0&
0%
#552000
0!
02
#556000
1!
12
14
1<
17
05
03
10
1%
#560000
1"
0!
11
02
0<
0;
19
07
13
1-
0/
00
0%
0$
1&
#564000
1!
12
06
#568000
0!
02
#572000
1!
12
#576000
0"
0!
01
02
1<
15
03
10
1%
#580000
1!
12
16
04
1;
09
0<
13
00
0-
1/
1$
0&
0%
#584000
0!
02
#588000
1!
12
14
1<
17
05
03
10
1%
#592000
1"
0!
11
02
0<
0;
19
07
13
1-
0/
00
0%
0$
1&
#596000
1!
12
06
#600000
0!
02
#604000
1!
12
#608000
0"
0!
01
02
1<
15
03
10
1%
#612000
1!
12
16
04
1;
09
0<
13
00
0-
1/
1$
0&
0%
#616000
0!
02
#620000
1!
12
14
1<
17
05
03
10
1%
#624000
1"
0!
11
02
0<
0;
19
07
13
1-
0/
00
0%
0$
1&
#628000
1!
12
06
#632000
0!
02
#636000
1!
12
#640000
0"
0!
01
02
1<
15
03
10
1%
#644000
1!
12
16
04
1;
09
0<
13
00
0-
1/
1$
0&
0%
#648000
0!
02
#652000
1!
12
14
1<
17
05
03
10
1%
#656000
1"
0!
11
02
0<
0;
19
07
13
1-
0/
00
0%
0$
1&
#660000
1!
12
06
#664000
0!
02
#668000
1!
12
#672000
0"
0!
01
02
1<
15
03
10
1%
#676000
1!
12
16
04
1;
09
0<
13
00
0-
1/
1$
0&
0%
#680000
0!
02
#684000
1!
12
14
1<
17
05
03
10
1%
#688000
1"
0!
11
02
0<
0;
19
07
13
1-
0/
00
0%
0$
1&
#692000
1!
12
06
#696000
0!
02
#700000
1!
12
#704000
0"
0!
01
02
1<
15
03
10
1%
#708000
1!
12
16
04
1;
09
0<
13
00
0-
1/
1$
0&
0%
#712000
0!
02
#716000
1!
12
14
1<
17
05
03
10
1%
#720000
1"
0!
11
02
0<
0;
19
07
13
1-
0/
00
0%
0$
1&
#724000
1!
12
06
#728000
0!
02
#732000
1!
12
#736000
0"
0!
01
02
1<
15
03
10
1%
#740000
1!
12
16
04
1;
09
0<
13
00
0-
1/
1$
0&
0%
#744000
0!
02
#748000
1!
12
14
1<
17
05
03
10
1%
#752000
1"
0!
11
02
0<
0;
19
07
13
1-
0/
00
0%
0$
1&
#756000
1!
12
06
#760000
0!
02
#764000
1!
12
#768000
0"
0!
01
02
1<
15
03
10
1%
#772000
1!
12
16
04
1;
09
0<
13
00
0-
1/
1$
0&
0%
#776000
0!
02
#780000
1!
12
14
1<
17
05
03
10
1%
#784000
1"
0!
11
02
0<
0;
19
07
13
1-
0/
00
0%
0$
1&
#788000
1!
12
06
#792000
0!
02
#796000
1!
12
#800000
0"
0!
01
02
1<
15
03
10
1%
#804000
1!
12
16
04
1;
09
0<
13
00
0-
1/
1$
0&
0%
#808000
0!
02
#812000
1!
12
14
1<
17
05
03
10
1%
#816000
1"
0!
11
02
0<
0;
19
07
13
1-
0/
00
0%
0$
1&
#820000
1!
12
06
#824000
0!
02
#828000
1!
12
#832000
0"
0!
01
02
1<
15
03
10
1%
#836000
1!
12
16
04
1;
09
0<
13
00
0-
1/
1$
0&
0%
#840000
0!
02
#844000
1!
12
14
1<
17
05
03
10
1%
#848000
1"
0!
11
02
0<
0;
19
07
13
1-
0/
00
0%
0$
1&
#852000
1!
12
06
#856000
0!
02
#860000
1!
12
#864000
0"
0!
01
02
1<
15
03
10
1%
#868000
1!
12
16
04
1;
09
0<
13
00
0-
1/
1$
0&
0%
#872000
0!
02
#876000
1!
12
14
1<
17
05
03
10
1%
#880000
1"
0!
11
02
0<
0;
19
07
13
1-
0/
00
0%
0$
1&
#884000
1!
12
06
#888000
0!
02
#892000
1!
12
#896000
0"
0!
01
02
1<
15
03
10
1%
#900000
1!
12
16
04
1;
09
0<
13
00
0-
1/
1$
0&
0%
#904000
0!
02
#908000
1!
12
14
1<
17
05
03
10
1%
#912000
1"
0!
11
02
0<
0;
19
07
13
1-
0/
00
0%
0$
1&
#916000
1!
12
06
#920000
0!
02
#924000
1!
12
#928000
0"
0!
01
02
1<
15
03
10
1%
#932000
1!
12
16
04
1;
09
0<
13
00
0-
1/
1$
0&
0%
#936000
0!
02
#940000
1!
12
14
1<
17
05
03
10
1%
#944000
1"
0!
11
02
0<
0;
19
07
13
1-
0/
00
0%
0$
1&
#948000
1!
12
06
#952000
0!
02
#956000
1!
12
#960000
0"
0!
01
02
1<
15
03
10
1%
#964000
1!
12
16
04
1;
09
0<
13
00
0-
1/
1$
0&
0%
#968000
0!
02
#972000
1!
12
14
1<
17
05
03
10
1%
#976000
1"
0!
11
02
0<
0;
19
07
13
1-
0/
00
0%
0$
1&
#980000
1!
12
06
#984000
0!
02
#988000
1!
12
#992000
0"
0!
01
02
1<
15
03
10
1%
#996000
1!
12
16
04
1;
09
0<
13
00
0-
1/
1$
0&
0%
