ISD/Quartus/simulation/qsim/Pratica1.msim.vcd
$comment
	File created using the following command:
		vcd file Pratica1.msim.vcd -direction
$end
$date
	Sun Nov 06 04:37:48 2022
$end
$version
	ModelSim Version 2020.1
$end
$timescale
	1ps
$end

$scope module Pratica1_vlg_vec_tst $end
$var reg 1 ! input1 $end
$var reg 1 " input2 $end
$var wire 1 # output1 $end

$scope module i1 $end
$var wire 1 $ gnd $end
$var wire 1 % vcc $end
$var wire 1 & unknown $end
$var tri1 1 ' devclrn $end
$var tri1 1 ( devpor $end
$var tri1 1 ) devoe $end
$var wire 1 * output1~output_o $end
$var wire 1 + input1~input_o $end
$var wire 1 , input2~input_o $end
$var wire 1 - AND_2~combout $end
$upscope $end
$upscope $end
$enddefinitions $end
#0
$dumpvars
0!
0"
0#
0$
1%
x&
1'
1(
1)
0*
0+
0,
0-
$end
#20000
1!
1+
#60000
0!
0+
#110000
1"
1,
#150000
0"
0,
#200000
1!
1"
1+
1,
1-
1*
1#
#240000
0!
0"
0+
0,
0-
0*
0#
#290000
1!
1+
#300000
1"
1,
1-
1*
1#
#340000
0"
0,
0-
0*
0#
#400000
1"
1,
1-
1*
1#
#420000
0"
0,
0-
0*
0#
#430000
0!
0+
