ISD/LuisISD/isd/teste_ISD_quartus/simulation/qsim/teste.msim.vcd
$comment
	File created using the following command:
		vcd file teste.msim.vcd -direction
$end
$date
	Wed Dec 22 10:17:59 2021
$end
$version
	ModelSim Version 2020.1
$end
$timescale
	1ps
$end

$scope module teste_vlg_vec_tst $end
$var reg 3 ! S [2:0] $end
$var reg 1 " X0 $end
$var reg 1 # X1 $end
$var reg 1 $ X2 $end
$var reg 1 % X3 $end
$var reg 1 & X4 $end
$var reg 1 ' X5 $end
$var reg 1 ( X6 $end
$var reg 1 ) X7 $end
$var wire 1 * Y $end

$scope module i1 $end
$var wire 1 + gnd $end
$var wire 1 , vcc $end
$var wire 1 - unknown $end
$var tri1 1 . devclrn $end
$var tri1 1 / devpor $end
$var tri1 1 0 devoe $end
$var wire 1 1 Y~output_o $end
$var wire 1 2 X5~input_o $end
$var wire 1 3 S[0]~input_o $end
$var wire 1 4 X6~input_o $end
$var wire 1 5 S[1]~input_o $end
$var wire 1 6 X4~input_o $end
$var wire 1 7 inst1|23~0_combout $end
$var wire 1 8 X7~input_o $end
$var wire 1 9 inst1|23~1_combout $end
$var wire 1 : X2~input_o $end
$var wire 1 ; X1~input_o $end
$var wire 1 < X0~input_o $end
$var wire 1 = inst1|23~2_combout $end
$var wire 1 > X3~input_o $end
$var wire 1 ? inst1|23~3_combout $end
$var wire 1 @ S[2]~input_o $end
$var wire 1 A inst1|23~4_combout $end
$upscope $end
$upscope $end
$enddefinitions $end
#0
$dumpvars
b0 !
0"
0#
0$
0%
0&
0'
0(
0)
0*
0+
1,
x-
1.
1/
10
01
02
03
04
05
06
07
08
09
0:
0;
0<
0=
0>
0?
0@
0A
$end
#1000
1)
18
#2000
1(
0)
14
08
#3000
1)
18
#4000
1'
0(
0)
12
04
08
#5000
1)
18
#6000
1(
0)
14
08
#7000
1)
18
#8000
1&
0'
0(
0)
16
02
04
08
17
19
#9000
1)
18
#10000
1(
0)
14
08
#11000
1)
18
#12000
1'
0(
0)
12
04
08
#13000
1)
18
#14000
1(
0)
14
08
#15000
1)
18
#16000
1%
0&
0'
0(
0)
1>
06
02
04
08
07
09
#17000
1)
18
#18000
1(
0)
14
08
#19000
1)
18
#20000
1'
0(
0)
12
04
08
#21000
1)
18
#22000
1(
0)
14
08
#23000
1)
18
#24000
1&
0'
0(
0)
16
02
04
08
17
19
#25000
1)
18
#26000
1(
0)
14
08
#27000
1)
18
#28000
1'
0(
0)
12
04
08
#29000
1)
18
#30000
1(
0)
14
08
#31000
1)
18
#32000
1$
0%
0&
0'
0(
0)
1:
0>
06
02
04
08
07
09
#33000
1)
18
#34000
1(
0)
14
08
#35000
1)
18
#36000
1'
0(
0)
12
04
08
#37000
1)
18
#38000
1(
0)
14
08
#39000
1)
18
#40000
1&
0'
0(
0)
16
02
04
08
17
19
#41000
1)
18
#42000
1(
0)
14
08
#43000
1)
18
#44000
1'
0(
0)
12
04
08
#45000
1)
18
#46000
1(
0)
14
08
#47000
1)
18
#48000
1%
0&
0'
0(
0)
1>
06
02
04
08
07
09
#49000
1)
18
#50000
1(
0)
14
08
#51000
1)
18
#52000
1'
0(
0)
12
04
08
#53000
1)
18
#54000
1(
0)
14
08
#55000
1)
18
#56000
1&
0'
0(
0)
16
02
04
08
17
19
#57000
1)
18
#58000
1(
0)
14
08
#59000
1)
18
#60000
1'
0(
0)
12
04
08
#61000
1)
18
#62000
1(
0)
14
08
#63000
1)
18
#64000
1#
0$
0%
0&
0'
0(
0)
1;
0:
0>
06
02
04
08
07
09
#65000
1)
18
#66000
1(
0)
14
08
#67000
1)
18
#68000
1'
0(
0)
12
04
08
#69000
1)
18
#70000
1(
0)
14
08
#71000
1)
18
#72000
1&
0'
0(
0)
16
02
04
08
17
19
#73000
1)
18
#74000
1(
0)
14
08
#75000
1)
18
#76000
1'
0(
0)
12
04
08
#77000
1)
18
#78000
1(
0)
14
08
#79000
1)
18
#80000
1%
0&
0'
0(
0)
1>
06
02
04
08
07
09
#81000
1)
18
#82000
1(
0)
14
08
#83000
1)
18
#84000
1'
0(
0)
12
04
08
#85000
1)
18
#86000
1(
0)
14
08
#87000
1)
18
#88000
1&
0'
0(
0)
16
02
04
08
17
19
#89000
1)
18
#90000
1(
0)
14
08
#91000
1)
18
#92000
1'
0(
0)
12
04
08
#93000
1)
18
#94000
1(
0)
14
08
#95000
1)
18
#96000
1$
0%
0&
0'
0(
0)
1:
0>
06
02
04
08
07
09
#97000
1)
18
#98000
1(
0)
14
08
#99000
1)
18
#100000
1'
0(
0)
12
04
08
#101000
1)
18
#102000
1(
0)
14
08
#103000
1)
18
#104000
1&
0'
0(
0)
16
02
04
08
17
19
#105000
1)
18
#106000
1(
0)
14
08
#107000
1)
18
#108000
1'
0(
0)
12
04
08
#109000
1)
18
#110000
1(
0)
14
08
#111000
1)
18
#112000
1%
0&
0'
0(
0)
1>
06
02
04
08
07
09
#113000
1)
18
#114000
1(
0)
14
08
#115000
1)
18
#116000
1'
0(
0)
12
04
08
#117000
1)
18
#118000
1(
0)
14
08
#119000
1)
18
#120000
1&
0'
0(
0)
16
02
04
08
17
19
#121000
1)
18
#122000
1(
0)
14
08
#123000
1)
18
#124000
1'
0(
0)
12
04
08
#125000
1)
18
#126000
1(
0)
14
08
#127000
1)
18
#128000
1"
0#
0$
0%
0&
0'
0(
0)
1<
0;
0:
0>
06
02
04
08
1=
07
1?
09
1A
11
1*
#129000
1)
18
#130000
1(
0)
14
08
#131000
1)
18
#132000
1'
0(
0)
12
04
08
#133000
1)
18
#134000
1(
0)
14
08
#135000
1)
18
#136000
1&
0'
0(
0)
16
02
04
08
17
19
#137000
1)
18
#138000
1(
0)
14
08
#139000
1)
18
#140000
1'
0(
0)
12
04
08
#141000
1)
18
#142000
1(
0)
14
08
#143000
1)
18
#144000
1%
0&
0'
0(
0)
1>
06
02
04
08
07
09
#145000
1)
18
#146000
1(
0)
14
08
#147000
1)
18
#148000
1'
0(
0)
12
04
08
#149000
1)
18
#150000
1(
0)
14
08
#151000
1)
18
#152000
1&
0'
0(
0)
16
02
04
08
17
19
#153000
1)
18
#154000
1(
0)
14
08
#155000
1)
18
#156000
1'
0(
0)
12
04
08
#157000
1)
18
#158000
1(
0)
14
08
#159000
1)
18
#160000
1$
0%
0&
0'
0(
0)
1:
0>
06
02
04
08
07
09
#161000
1)
18
#162000
1(
0)
14
08
#163000
1)
18
#164000
1'
0(
0)
12
04
08
#165000
1)
18
#166000
1(
0)
14
08
#167000
1)
18
#168000
1&
0'
0(
0)
16
02
04
08
17
19
#169000
1)
18
#170000
1(
0)
14
08
#171000
1)
18
#172000
1'
0(
0)
12
04
08
#173000
1)
18
#174000
1(
0)
14
08
#175000
1)
18
#176000
1%
0&
0'
0(
0)
1>
06
02
04
08
07
09
#177000
1)
18
#178000
1(
0)
14
08
#179000
1)
18
#180000
1'
0(
0)
12
04
08
#181000
1)
18
#182000
1(
0)
14
08
#183000
1)
18
#184000
1&
0'
0(
0)
16
02
04
08
17
19
#185000
1)
18
#186000
1(
0)
14
08
#187000
1)
18
#188000
1'
0(
0)
12
04
08
#189000
1)
18
#190000
1(
0)
14
08
#191000
1)
18
#192000
1#
0$
0%
0&
0'
0(
0)
1;
0:
0>
06
02
04
08
07
09
#193000
1)
18
#194000
1(
0)
14
08
#195000
1)
18
#196000
1'
0(
0)
12
04
08
#197000
1)
18
#198000
1(
0)
14
08
#199000
1)
18
#200000
1&
0'
0(
0)
16
02
04
08
17
19
#201000
1)
18
#202000
1(
0)
14
08
#203000
1)
18
#204000
1'
0(
0)
12
04
08
#205000
1)
18
#206000
1(
0)
14
08
#207000
1)
18
#208000
1%
0&
0'
0(
0)
1>
06
02
04
08
07
09
#209000
1)
18
#210000
1(
0)
14
08
#211000
1)
18
#212000
1'
0(
0)
12
04
08
#213000
1)
18
#214000
1(
0)
14
08
#215000
1)
18
#216000
1&
0'
0(
0)
16
02
04
08
17
19
#217000
1)
18
#218000
1(
0)
14
08
#219000
1)
18
#220000
1'
0(
0)
12
04
08
#221000
1)
18
#222000
1(
0)
14
08
#223000
1)
18
#224000
1$
0%
0&
0'
0(
0)
1:
0>
06
02
04
08
07
09
#225000
1)
18
#226000
1(
0)
14
08
#227000
1)
18
#228000
1'
0(
0)
12
04
08
#229000
1)
18
#230000
1(
0)
14
08
#231000
1)
18
#232000
1&
0'
0(
0)
16
02
04
08
17
19
#233000
1)
18
#234000
1(
0)
14
08
#235000
1)
18
#236000
1'
0(
0)
12
04
08
#237000
1)
18
#238000
1(
0)
14
08
#239000
1)
18
#240000
1%
0&
0'
0(
0)
1>
06
02
04
08
07
09
#241000
1)
18
#242000
1(
0)
14
08
#243000
1)
18
#244000
1'
0(
0)
12
04
08
#245000
1)
18
#246000
1(
0)
14
08
#247000
1)
18
#248000
1&
0'
0(
0)
16
02
04
08
17
19
#249000
1)
18
#250000
1(
0)
14
08
#251000
1)
18
#252000
1'
0(
0)
12
04
08
#253000
1)
18
#254000
1(
0)
14
08
#255000
1)
18
#256000
b100 !
b110 !
b111 !
0"
0#
0$
0%
0&
0'
0(
0)
13
15
1@
0<
0;
0:
0>
06
02
04
08
09
0?
0A
01
0*
#257000
1)
18
19
1A
11
1*
#258000
1(
0)
14
08
09
0A
01
0*
#259000
1)
18
19
1A
11
1*
#260000
1'
0(
0)
12
04
08
09
0A
01
0*
#261000
1)
18
19
1A
11
1*
#262000
1(
0)
14
08
09
0A
01
0*
#263000
1)
18
19
1A
11
1*
#264000
1&
0'
0(
0)
16
02
04
08
09
0A
01
0*
#265000
1)
18
19
1A
11
1*
#266000
1(
0)
14
08
09
0A
01
0*
#267000
1)
18
19
1A
11
1*
#268000
1'
0(
0)
12
04
08
09
0A
01
0*
#269000
1)
18
19
1A
11
1*
#270000
1(
0)
14
08
09
0A
01
0*
#271000
1)
18
19
1A
11
1*
#272000
1%
0&
0'
0(
0)
1>
06
02
04
08
1?
09
0A
01
0*
#273000
1)
18
19
1A
11
1*
#274000
1(
0)
14
08
09
0A
01
0*
#275000
1)
18
19
1A
11
1*
#276000
1'
0(
0)
12
04
08
09
0A
01
0*
#277000
1)
18
19
1A
11
1*
#278000
1(
0)
14
08
09
0A
01
0*
#279000
1)
18
19
1A
11
1*
#280000
1&
0'
0(
0)
16
02
04
08
09
0A
01
0*
#281000
1)
18
19
1A
11
1*
#282000
1(
0)
14
08
09
0A
01
0*
#283000
1)
18
19
1A
11
1*
#284000
1'
0(
0)
12
04
08
09
0A
01
0*
#285000
1)
18
19
1A
11
1*
#286000
1(
0)
14
08
09
0A
01
0*
#287000
1)
18
19
1A
11
1*
#288000
1$
0%
0&
0'
0(
0)
1:
0>
06
02
04
08
0?
09
0A
01
0*
#289000
1)
18
19
1A
11
1*
#290000
1(
0)
14
08
09
0A
01
0*
#291000
1)
18
19
1A
11
1*
#292000
1'
0(
0)
12
04
08
09
0A
01
0*
#293000
1)
18
19
1A
11
1*
#294000
1(
0)
14
08
09
0A
01
0*
#295000
1)
18
19
1A
11
1*
#296000
1&
0'
0(
0)
16
02
04
08
09
0A
01
0*
#297000
1)
18
19
1A
11
1*
#298000
1(
0)
14
08
09
0A
01
0*
#299000
1)
18
19
1A
11
1*
#300000
1'
0(
0)
12
04
08
09
0A
01
0*
#301000
1)
18
19
1A
11
1*
#302000
1(
0)
14
08
09
0A
01
0*
#303000
1)
18
19
1A
11
1*
#304000
1%
0&
0'
0(
0)
1>
06
02
04
08
1?
09
0A
01
0*
#305000
1)
18
19
1A
11
1*
#306000
1(
0)
14
08
09
0A
01
0*
#307000
1)
18
19
1A
11
1*
#308000
1'
0(
0)
12
04
08
09
0A
01
0*
#309000
1)
18
19
1A
11
1*
#310000
1(
0)
14
08
09
0A
01
0*
#311000
1)
18
19
1A
11
1*
#312000
1&
0'
0(
0)
16
02
04
08
09
0A
01
0*
#313000
1)
18
19
1A
11
1*
#314000
1(
0)
14
08
09
0A
01
0*
#315000
1)
18
19
1A
11
1*
#316000
1'
0(
0)
12
04
08
09
0A
01
0*
#317000
1)
18
19
1A
11
1*
#318000
1(
0)
14
08
09
0A
01
0*
#319000
1)
18
19
1A
11
1*
#320000
1#
0$
0%
0&
0'
0(
0)
1;
0:
0>
06
02
04
08
0?
09
0A
01
0*
#321000
1)
18
19
1A
11
1*
#322000
1(
0)
14
08
09
0A
01
0*
#323000
1)
18
19
1A
11
1*
#324000
1'
0(
0)
12
04
08
09
0A
01
0*
#325000
1)
18
19
1A
11
1*
#326000
1(
0)
14
08
09
0A
01
0*
#327000
1)
18
19
1A
11
1*
#328000
1&
0'
0(
0)
16
02
04
08
09
0A
01
0*
#329000
1)
18
19
1A
11
1*
#330000
1(
0)
14
08
09
0A
01
0*
#331000
1)
18
19
1A
11
1*
#332000
1'
0(
0)
12
04
08
09
0A
01
0*
#333000
1)
18
19
1A
11
1*
#334000
1(
0)
14
08
09
0A
01
0*
#335000
1)
18
19
1A
11
1*
#336000
1%
0&
0'
0(
0)
1>
06
02
04
08
1?
09
0A
01
0*
#337000
1)
18
19
1A
11
1*
#338000
1(
0)
14
08
09
0A
01
0*
#339000
1)
18
19
1A
11
1*
#340000
1'
0(
0)
12
04
08
09
0A
01
0*
#341000
1)
18
19
1A
11
1*
#342000
1(
0)
14
08
09
0A
01
0*
#343000
1)
18
19
1A
11
1*
#344000
1&
0'
0(
0)
16
02
04
08
09
0A
01
0*
#345000
1)
18
19
1A
11
1*
#346000
1(
0)
14
08
09
0A
01
0*
#347000
1)
18
19
1A
11
1*
#348000
1'
0(
0)
12
04
08
09
0A
01
0*
#349000
1)
18
19
1A
11
1*
#350000
1(
0)
14
08
09
0A
01
0*
#351000
1)
18
19
1A
11
1*
#352000
1$
0%
0&
0'
0(
0)
1:
0>
06
02
04
08
0?
09
0A
01
0*
#353000
1)
18
19
1A
11
1*
#354000
1(
0)
14
08
09
0A
01
0*
#355000
1)
18
19
1A
11
1*
#356000
1'
0(
0)
12
04
08
09
0A
01
0*
#357000
1)
18
19
1A
11
1*
#358000
1(
0)
14
08
09
0A
01
0*
#359000
1)
18
19
1A
11
1*
#360000
1&
0'
0(
0)
16
02
04
08
09
0A
01
0*
#361000
1)
18
19
1A
11
1*
#362000
1(
0)
14
08
09
0A
01
0*
#363000
1)
18
19
1A
11
1*
#364000
1'
0(
0)
12
04
08
09
0A
01
0*
#365000
1)
18
19
1A
11
1*
#366000
1(
0)
14
08
09
0A
01
0*
#367000
1)
18
19
1A
11
1*
#368000
1%
0&
0'
0(
0)
1>
06
02
04
08
1?
09
0A
01
0*
#369000
1)
18
19
1A
11
1*
#370000
1(
0)
14
08
09
0A
01
0*
#371000
1)
18
19
1A
11
1*
#372000
1'
0(
0)
12
04
08
09
0A
01
0*
#373000
1)
18
19
1A
11
1*
#374000
1(
0)
14
08
09
0A
01
0*
#375000
1)
18
19
1A
11
1*
#376000
1&
0'
0(
0)
16
02
04
08
09
0A
01
0*
#377000
1)
18
19
1A
11
1*
#378000
1(
0)
14
08
09
0A
01
0*
#379000
1)
18
19
1A
11
1*
#380000
1'
0(
0)
12
04
08
09
0A
01
0*
#381000
1)
18
19
1A
11
1*
#382000
1(
0)
14
08
09
0A
01
0*
#383000
1)
18
19
1A
11
1*
#384000
1"
0#
0$
0%
0&
0'
0(
0)
1<
0;
0:
0>
06
02
04
08
0?
09
0A
01
0*
#385000
1)
18
19
1A
11
1*
#386000
1(
0)
14
08
09
0A
01
0*
#387000
1)
18
19
1A
11
1*
#388000
1'
0(
0)
12
04
08
09
0A
01
0*
#389000
1)
18
19
1A
11
1*
#390000
1(
0)
14
08
09
0A
01
0*
#391000
1)
18
19
1A
11
1*
#392000
1&
0'
0(
0)
16
02
04
08
09
0A
01
0*
#393000
1)
18
19
1A
11
1*
#394000
1(
0)
14
08
09
0A
01
0*
#395000
1)
18
19
1A
11
1*
#396000
1'
0(
0)
12
04
08
09
0A
01
0*
#397000
1)
18
19
1A
11
1*
#398000
1(
0)
14
08
09
0A
01
0*
#399000
1)
18
19
1A
11
1*
#400000
1%
0&
0'
0(
0)
1>
06
02
04
08
1?
09
0A
01
0*
#401000
1)
18
19
1A
11
1*
#402000
1(
0)
14
08
09
0A
01
0*
#403000
1)
18
19
1A
11
1*
#404000
1'
0(
0)
12
04
08
09
0A
01
0*
#405000
1)
18
19
1A
11
1*
#406000
1(
0)
14
08
09
0A
01
0*
#407000
1)
18
19
1A
11
1*
#408000
1&
0'
0(
0)
16
02
04
08
09
0A
01
0*
#409000
1)
18
19
1A
11
1*
#410000
1(
0)
14
08
09
0A
01
0*
#411000
1)
18
19
1A
11
1*
#412000
1'
0(
0)
12
04
08
09
0A
01
0*
#413000
1)
18
19
1A
11
1*
#414000
1(
0)
14
08
09
0A
01
0*
#415000
1)
18
19
1A
11
1*
#416000
1$
0%
0&
0'
0(
0)
1:
0>
06
02
04
08
0?
09
0A
01
0*
#417000
1)
18
19
1A
11
1*
#418000
1(
0)
14
08
09
0A
01
0*
#419000
1)
18
19
1A
11
1*
#420000
1'
0(
0)
12
04
08
09
0A
01
0*
#421000
1)
18
19
1A
11
1*
#422000
1(
0)
14
08
09
0A
01
0*
#423000
1)
18
19
1A
11
1*
#424000
1&
0'
0(
0)
16
02
04
08
09
0A
01
0*
#425000
1)
18
19
1A
11
1*
#426000
1(
0)
14
08
09
0A
01
0*
#427000
1)
18
19
1A
11
1*
#428000
1'
0(
0)
12
04
08
09
0A
01
0*
#429000
1)
18
19
1A
11
1*
#430000
1(
0)
14
08
09
0A
01
0*
#431000
1)
18
19
1A
11
1*
#432000
1%
0&
0'
0(
0)
1>
06
02
04
08
1?
09
0A
01
0*
#433000
1)
18
19
1A
11
1*
#434000
1(
0)
14
08
09
0A
01
0*
#435000
1)
18
19
1A
11
1*
#436000
1'
0(
0)
12
04
08
09
0A
01
0*
#437000
1)
18
19
1A
11
1*
#438000
1(
0)
14
08
09
0A
01
0*
#439000
1)
18
19
1A
11
1*
#440000
1&
0'
0(
0)
16
02
04
08
09
0A
01
0*
#441000
1)
18
19
1A
11
1*
#442000
1(
0)
14
08
09
0A
01
0*
#443000
1)
18
19
1A
11
1*
#444000
1'
0(
0)
12
04
08
09
0A
01
0*
#445000
1)
18
19
1A
11
1*
#446000
1(
0)
14
08
09
0A
01
0*
#447000
1)
18
19
1A
11
1*
#448000
1#
0$
0%
0&
0'
0(
0)
1;
0:
0>
06
02
04
08
0?
09
0A
01
0*
#449000
1)
18
19
1A
11
1*
#450000
1(
0)
14
08
09
0A
01
0*
#451000
1)
18
19
1A
11
1*
#452000
1'
0(
0)
12
04
08
09
0A
01
0*
#453000
1)
18
19
1A
11
1*
#454000
1(
0)
14
08
09
0A
01
0*
#455000
1)
18
19
1A
11
1*
#456000
1&
0'
0(
0)
16
02
04
08
09
0A
01
0*
#457000
1)
18
19
1A
11
1*
#458000
1(
0)
14
08
09
0A
01
0*
#459000
1)
18
19
1A
11
1*
#460000
1'
0(
0)
12
04
08
09
0A
01
0*
#461000
1)
18
19
1A
11
1*
#462000
1(
0)
14
08
09
0A
01
0*
#463000
1)
18
19
1A
11
1*
#464000
1%
0&
0'
0(
0)
1>
06
02
04
08
1?
09
0A
01
0*
#465000
1)
18
19
1A
11
1*
#466000
1(
0)
14
08
09
0A
01
0*
#467000
1)
18
19
1A
11
1*
#468000
1'
0(
0)
12
04
08
09
0A
01
0*
#469000
1)
18
19
1A
11
1*
#470000
1(
0)
14
08
09
0A
01
0*
#471000
1)
18
19
1A
11
1*
#472000
1&
0'
0(
0)
16
02
04
08
09
0A
01
0*
#473000
1)
18
19
1A
11
1*
#474000
1(
0)
14
08
09
0A
01
0*
#475000
1)
18
19
1A
11
1*
#476000
1'
0(
0)
12
04
08
09
0A
01
0*
#477000
1)
18
19
1A
11
1*
#478000
1(
0)
14
08
09
0A
01
0*
#479000
1)
18
19
1A
11
1*
#480000
1$
0%
0&
0'
0(
0)
1:
0>
06
02
04
08
0?
09
0A
01
0*
#481000
1)
18
19
1A
11
1*
#482000
1(
0)
14
08
09
0A
01
0*
#483000
1)
18
19
1A
11
1*
#484000
1'
0(
0)
12
04
08
09
0A
01
0*
#485000
1)
18
19
1A
11
1*
#486000
1(
0)
14
08
09
0A
01
0*
#487000
1)
18
19
1A
11
1*
#488000
1&
0'
0(
0)
16
02
04
08
09
0A
01
0*
#489000
1)
18
19
1A
11
1*
#490000
1(
0)
14
08
09
0A
01
0*
#491000
1)
18
19
1A
11
1*
#492000
1'
0(
0)
12
04
08
09
0A
01
0*
#493000
1)
18
19
1A
11
1*
#494000
1(
0)
14
08
09
0A
01
0*
#495000
1)
18
19
1A
11
1*
#496000
1%
0&
0'
0(
0)
1>
06
02
04
08
1?
09
0A
01
0*
#497000
1)
18
19
1A
11
1*
#498000
1(
0)
14
08
09
0A
01
0*
#499000
1)
18
19
1A
11
1*
#500000
1'
0(
0)
12
04
08
09
0A
01
0*
#501000
1)
18
19
1A
11
1*
#502000
1(
0)
14
08
09
0A
01
0*
#503000
1)
18
19
1A
11
1*
#504000
1&
0'
0(
0)
16
02
04
08
09
0A
01
0*
#505000
1)
18
19
1A
11
1*
#506000
1(
0)
14
08
09
0A
01
0*
#507000
1)
18
19
1A
11
1*
#508000
1'
0(
0)
12
04
08
09
0A
01
0*
#509000
1)
18
19
1A
11
1*
#510000
1(
0)
14
08
09
0A
01
0*
#511000
1)
18
19
1A
11
1*
#512000
b11 !
b1 !
b0 !
0"
0#
0$
0%
0&
0'
0(
0)
03
05
0@
0<
0;
0:
0>
06
02
04
08
0=
07
0?
09
0A
01
0*
#513000
1)
18
#514000
1(
0)
14
08
#515000
1)
18
#516000
1'
0(
0)
12
04
08
#517000
1)
18
#518000
1(
0)
14
08
#519000
1)
18
#520000
1&
0'
0(
0)
16
02
04
08
17
19
#521000
1)
18
#522000
1(
0)
14
08
#523000
1)
18
#524000
1'
0(
0)
12
04
08
#525000
1)
18
#526000
1(
0)
14
08
#527000
1)
18
#528000
1%
0&
0'
0(
0)
1>
06
02
04
08
07
09
#529000
1)
18
#530000
1(
0)
14
08
#531000
1)
18
#532000
1'
0(
0)
12
04
08
#533000
1)
18
#534000
1(
0)
14
08
#535000
1)
18
#536000
1&
0'
0(
0)
16
02
04
08
17
19
#537000
1)
18
#538000
1(
0)
14
08
#539000
1)
18
#540000
1'
0(
0)
12
04
08
#541000
1)
18
#542000
1(
0)
14
08
#543000
1)
18
#544000
1$
0%
0&
0'
0(
0)
1:
0>
06
02
04
08
07
09
#545000
1)
18
#546000
1(
0)
14
08
#547000
1)
18
#548000
1'
0(
0)
12
04
08
#549000
1)
18
#550000
1(
0)
14
08
#551000
1)
18
#552000
1&
0'
0(
0)
16
02
04
08
17
19
#553000
1)
18
#554000
1(
0)
14
08
#555000
1)
18
#556000
1'
0(
0)
12
04
08
#557000
1)
18
#558000
1(
0)
14
08
#559000
1)
18
#560000
1%
0&
0'
0(
0)
1>
06
02
04
08
07
09
#561000
1)
18
#562000
1(
0)
14
08
#563000
1)
18
#564000
1'
0(
0)
12
04
08
#565000
1)
18
#566000
1(
0)
14
08
#567000
1)
18
#568000
1&
0'
0(
0)
16
02
04
08
17
19
#569000
1)
18
#570000
1(
0)
14
08
#571000
1)
18
#572000
1'
0(
0)
12
04
08
#573000
1)
18
#574000
1(
0)
14
08
#575000
1)
18
#576000
1#
0$
0%
0&
0'
0(
0)
1;
0:
0>
06
02
04
08
07
09
#577000
1)
18
#578000
1(
0)
14
08
#579000
1)
18
#580000
1'
0(
0)
12
04
08
#581000
1)
18
#582000
1(
0)
14
08
#583000
1)
18
#584000
1&
0'
0(
0)
16
02
04
08
17
19
#585000
1)
18
#586000
1(
0)
14
08
#587000
1)
18
#588000
1'
0(
0)
12
04
08
#589000
1)
18
#590000
1(
0)
14
08
#591000
1)
18
#592000
1%
0&
0'
0(
0)
1>
06
02
04
08
07
09
#593000
1)
18
#594000
1(
0)
14
08
#595000
1)
18
#596000
1'
0(
0)
12
04
08
#597000
1)
18
#598000
1(
0)
14
08
#599000
1)
18
#600000
1&
0'
0(
0)
16
02
04
08
17
19
#601000
1)
18
#602000
1(
0)
14
08
#603000
1)
18
#604000
1'
0(
0)
12
04
08
#605000
1)
18
#606000
1(
0)
14
08
#607000
1)
18
#608000
1$
0%
0&
0'
0(
0)
1:
0>
06
02
04
08
07
09
#609000
1)
18
#610000
1(
0)
14
08
#611000
1)
18
#612000
1'
0(
0)
12
04
08
#613000
1)
18
#614000
1(
0)
14
08
#615000
1)
18
#616000
1&
0'
0(
0)
16
02
04
08
17
19
#617000
1)
18
#618000
1(
0)
14
08
#619000
1)
18
#620000
1'
0(
0)
12
04
08
#621000
1)
18
#622000
1(
0)
14
08
#623000
1)
18
#624000
1%
0&
0'
0(
0)
1>
06
02
04
08
07
09
#625000
1)
18
#626000
1(
0)
14
08
#627000
1)
18
#628000
1'
0(
0)
12
04
08
#629000
1)
18
#630000
1(
0)
14
08
#631000
1)
18
#632000
1&
0'
0(
0)
16
02
04
08
17
19
#633000
1)
18
#634000
1(
0)
14
08
#635000
1)
18
#636000
1'
0(
0)
12
04
08
#637000
1)
18
#638000
1(
0)
14
08
#639000
1)
18
#640000
1"
0#
0$
0%
0&
0'
0(
0)
1<
0;
0:
0>
06
02
04
08
1=
07
1?
09
1A
11
1*
#641000
1)
18
#642000
1(
0)
14
08
#643000
1)
18
#644000
1'
0(
0)
12
04
08
#645000
1)
18
#646000
1(
0)
14
08
#647000
1)
18
#648000
1&
0'
0(
0)
16
02
04
08
17
19
#649000
1)
18
#650000
1(
0)
14
08
#651000
1)
18
#652000
1'
0(
0)
12
04
08
#653000
1)
18
#654000
1(
0)
14
08
#655000
1)
18
#656000
1%
0&
0'
0(
0)
1>
06
02
04
08
07
09
#657000
1)
18
#658000
1(
0)
14
08
#659000
1)
18
#660000
1'
0(
0)
12
04
08
#661000
1)
18
#662000
1(
0)
14
08
#663000
1)
18
#664000
1&
0'
0(
0)
16
02
04
08
17
19
#665000
1)
18
#666000
1(
0)
14
08
#667000
1)
18
#668000
1'
0(
0)
12
04
08
#669000
1)
18
#670000
1(
0)
14
08
#671000
1)
18
#672000
1$
0%
0&
0'
0(
0)
1:
0>
06
02
04
08
07
09
#673000
1)
18
#674000
1(
0)
14
08
#675000
1)
18
#676000
1'
0(
0)
12
04
08
#677000
1)
18
#678000
1(
0)
14
08
#679000
1)
18
#680000
1&
0'
0(
0)
16
02
04
08
17
19
#681000
1)
18
#682000
1(
0)
14
08
#683000
1)
18
#684000
1'
0(
0)
12
04
08
#685000
1)
18
#686000
1(
0)
14
08
#687000
1)
18
#688000
1%
0&
0'
0(
0)
1>
06
02
04
08
07
09
#689000
1)
18
#690000
1(
0)
14
08
#691000
1)
18
#692000
1'
0(
0)
12
04
08
#693000
1)
18
#694000
1(
0)
14
08
#695000
1)
18
#696000
1&
0'
0(
0)
16
02
04
08
17
19
#697000
1)
18
#698000
1(
0)
14
08
#699000
1)
18
#700000
1'
0(
0)
12
04
08
#701000
1)
18
#702000
1(
0)
14
08
#703000
1)
18
#704000
1#
0$
0%
0&
0'
0(
0)
1;
0:
0>
06
02
04
08
07
09
#705000
1)
18
#706000
1(
0)
14
08
#707000
1)
18
#708000
1'
0(
0)
12
04
08
#709000
1)
18
#710000
1(
0)
14
08
#711000
1)
18
#712000
1&
0'
0(
0)
16
02
04
08
17
19
#713000
1)
18
#714000
1(
0)
14
08
#715000
1)
18
#716000
1'
0(
0)
12
04
08
#717000
1)
18
#718000
1(
0)
14
08
#719000
1)
18
#720000
1%
0&
0'
0(
0)
1>
06
02
04
08
07
09
#721000
1)
18
#722000
1(
0)
14
08
#723000
1)
18
#724000
1'
0(
0)
12
04
08
#725000
1)
18
#726000
1(
0)
14
08
#727000
1)
18
#728000
1&
0'
0(
0)
16
02
04
08
17
19
#729000
1)
18
#730000
1(
0)
14
08
#731000
1)
18
#732000
1'
0(
0)
12
04
08
#733000
1)
18
#734000
1(
0)
14
08
#735000
1)
18
#736000
1$
0%
0&
0'
0(
0)
1:
0>
06
02
04
08
07
09
#737000
1)
18
#738000
1(
0)
14
08
#739000
1)
18
#740000
1'
0(
0)
12
04
08
#741000
1)
18
#742000
1(
0)
14
08
#743000
1)
18
#744000
1&
0'
0(
0)
16
02
04
08
17
19
#745000
1)
18
#746000
1(
0)
14
08
#747000
1)
18
#748000
1'
0(
0)
12
04
08
#749000
1)
18
#750000
1(
0)
14
08
#751000
1)
18
#752000
1%
0&
0'
0(
0)
1>
06
02
04
08
07
09
#753000
1)
18
#754000
1(
0)
14
08
#755000
1)
18
#756000
1'
0(
0)
12
04
08
#757000
1)
18
#758000
1(
0)
14
08
#759000
1)
18
#760000
1&
0'
0(
0)
16
02
04
08
17
19
#761000
1)
18
#762000
1(
0)
14
08
#763000
1)
18
#764000
1'
0(
0)
12
04
08
#765000
1)
18
#766000
1(
0)
14
08
#767000
1)
18
#768000
b100 !
b110 !
b111 !
0"
0#
0$
0%
0&
0'
0(
0)
13
15
1@
0<
0;
0:
0>
06
02
04
08
09
0?
0A
01
0*
#769000
1)
18
19
1A
11
1*
#770000
1(
0)
14
08
09
0A
01
0*
#771000
1)
18
19
1A
11
1*
#772000
1'
0(
0)
12
04
08
09
0A
01
0*
#773000
1)
18
19
1A
11
1*
#774000
1(
0)
14
08
09
0A
01
0*
#775000
1)
18
19
1A
11
1*
#776000
1&
0'
0(
0)
16
02
04
08
09
0A
01
0*
#777000
1)
18
19
1A
11
1*
#778000
1(
0)
14
08
09
0A
01
0*
#779000
1)
18
19
1A
11
1*
#780000
1'
0(
0)
12
04
08
09
0A
01
0*
#781000
1)
18
19
1A
11
1*
#782000
1(
0)
14
08
09
0A
01
0*
#783000
1)
18
19
1A
11
1*
