ISD/LuisISD/isd/teste41/simulation/qsim/mux41.msim.vcd
$comment
	File created using the following command:
		vcd file mux41.msim.vcd -direction
$end
$date
	Tue Dec 21 17:05:40 2021
$end
$version
	ModelSim Version 2020.1
$end
$timescale
	1ps
$end

$scope module mux41_vlg_vec_tst $end
$var reg 1 ! I0 $end
$var reg 1 " I1 $end
$var reg 1 # I2 $end
$var reg 1 $ I3 $end
$var reg 1 % I4 $end
$var reg 1 & I5 $end
$var reg 1 ' I6 $end
$var reg 1 ( I7 $end
$var reg 3 ) S [2:0] $end
$var wire 1 * Y $end

$scope module i1 $end
$var wire 1 + gnd $end
$var wire 1 , vcc $end
$var wire 1 - unknown $end
$var tri1 1 . devclrn $end
$var tri1 1 / devpor $end
$var tri1 1 0 devoe $end
$var wire 1 1 Y~output_o $end
$var wire 1 2 I3~input_o $end
$var wire 1 3 I2~input_o $end
$var wire 1 4 S[0]~input_o $end
$var wire 1 5 S[2]~input_o $end
$var wire 1 6 inst3~0_combout $end
$var wire 1 7 I1~input_o $end
$var wire 1 8 I0~input_o $end
$var wire 1 9 inst3~1_combout $end
$var wire 1 : S[1]~input_o $end
$var wire 1 ; inst3~2_combout $end
$var wire 1 < I7~input_o $end
$var wire 1 = I6~input_o $end
$var wire 1 > inst3~3_combout $end
$var wire 1 ? I5~input_o $end
$var wire 1 @ I4~input_o $end
$var wire 1 A inst3~4_combout $end
$var wire 1 B inst3~5_combout $end
$upscope $end
$upscope $end
$enddefinitions $end
#0
$dumpvars
0!
0"
0#
0$
0%
0&
0'
0(
b111 )
0*
0+
1,
x-
1.
1/
10
01
02
03
14
15
06
07
08
09
1:
0;
0<
0=
0>
0?
0@
0A
0B
$end
#1000
1!
18
#2000
1"
0!
17
08
#3000
1!
18
#4000
1#
0"
0!
13
07
08
#5000
1!
18
#6000
1"
0!
17
08
#7000
1!
18
#8000
1$
0#
0"
0!
12
03
07
08
#9000
1!
18
#10000
1"
0!
17
08
#11000
1!
18
#12000
1#
0"
0!
13
07
08
#13000
1!
18
#14000
1"
0!
17
08
#15000
1!
18
#16000
1%
0$
0#
0"
0!
1@
02
03
07
08
#17000
1!
18
#18000
1"
0!
17
08
#19000
1!
18
#20000
1#
0"
0!
13
07
08
#21000
1!
18
#22000
1"
0!
17
08
#23000
1!
18
#24000
1$
0#
0"
0!
12
03
07
08
#25000
1!
18
#26000
1"
0!
17
08
#27000
1!
18
#28000
1#
0"
0!
13
07
08
#29000
1!
18
#30000
1"
0!
17
08
#31000
1!
18
#32000
1&
0%
0$
0#
0"
0!
1?
0@
02
03
07
08
1A
#33000
1!
18
#34000
1"
0!
17
08
#35000
1!
18
#36000
1#
0"
0!
13
07
08
#37000
1!
18
#38000
1"
0!
17
08
#39000
1!
18
#40000
1$
0#
0"
0!
12
03
07
08
#41000
1!
18
#42000
1"
0!
17
08
#43000
1!
18
#44000
1#
0"
0!
13
07
08
#45000
1!
18
#46000
1"
0!
17
08
#47000
1!
18
#48000
1%
0$
0#
0"
0!
1@
02
03
07
08
#49000
1!
18
#50000
1"
0!
17
08
#51000
1!
18
#52000
1#
0"
0!
13
07
08
#53000
1!
18
#54000
1"
0!
17
08
#55000
1!
18
#56000
1$
0#
0"
0!
12
03
07
08
#57000
1!
18
#58000
1"
0!
17
08
#59000
1!
18
#60000
1#
0"
0!
13
07
08
#61000
1!
18
#62000
1"
0!
17
08
#63000
1!
18
#64000
1'
0&
0%
0$
0#
0"
0!
1=
0?
0@
02
03
07
08
0A
#65000
1!
18
#66000
1"
0!
17
08
#67000
1!
18
#68000
1#
0"
0!
13
07
08
#69000
1!
18
#70000
1"
0!
17
08
#71000
1!
18
#72000
1$
0#
0"
0!
12
03
07
08
#73000
1!
18
#74000
1"
0!
17
08
#75000
1!
18
#76000
1#
0"
0!
13
07
08
#77000
1!
18
#78000
1"
0!
17
08
#79000
1!
18
#80000
1%
0$
0#
0"
0!
1@
02
03
07
08
#81000
1!
18
#82000
1"
0!
17
08
#83000
1!
18
#84000
1#
0"
0!
13
07
08
#85000
1!
18
#86000
1"
0!
17
08
#87000
1!
18
#88000
1$
0#
0"
0!
12
03
07
08
#89000
1!
18
#90000
1"
0!
17
08
#91000
1!
18
#92000
1#
0"
0!
13
07
08
#93000
1!
18
#94000
1"
0!
17
08
#95000
1!
18
#96000
1&
0%
0$
0#
0"
0!
1?
0@
02
03
07
08
1A
#97000
1!
18
#98000
1"
0!
17
08
#99000
1!
18
#100000
1#
0"
0!
13
07
08
#101000
1!
18
#102000
1"
0!
17
08
#103000
1!
18
#104000
1$
0#
0"
0!
12
03
07
08
#105000
1!
18
#106000
1"
0!
17
08
#107000
1!
18
#108000
1#
0"
0!
13
07
08
#109000
1!
18
#110000
1"
0!
17
08
#111000
1!
18
#112000
1%
0$
0#
0"
0!
1@
02
03
07
08
#113000
1!
18
#114000
1"
0!
17
08
#115000
1!
18
#116000
1#
0"
0!
13
07
08
#117000
1!
18
#118000
1"
0!
17
08
#119000
1!
18
#120000
1$
0#
0"
0!
12
03
07
08
#121000
1!
18
#122000
1"
0!
17
08
#123000
1!
18
#124000
1#
0"
0!
13
07
08
#125000
1!
18
#126000
1"
0!
17
08
#127000
1!
18
#128000
1(
0'
0&
0%
0$
0#
0"
0!
1<
0=
0?
0@
02
03
07
08
1>
0A
1B
11
1*
#129000
1!
18
#130000
1"
0!
17
08
#131000
1!
18
#132000
1#
0"
0!
13
07
08
#133000
1!
18
#134000
1"
0!
17
08
#135000
1!
18
#136000
1$
0#
0"
0!
12
03
07
08
#137000
1!
18
#138000
1"
0!
17
08
#139000
1!
18
#140000
1#
0"
0!
13
07
08
#141000
1!
18
#142000
1"
0!
17
08
#143000
1!
18
#144000
1%
0$
0#
0"
0!
1@
02
03
07
08
#145000
1!
18
#146000
1"
0!
17
08
#147000
1!
18
#148000
1#
0"
0!
13
07
08
#149000
1!
18
#150000
1"
0!
17
08
#151000
1!
18
#152000
1$
0#
0"
0!
12
03
07
08
#153000
1!
18
#154000
1"
0!
17
08
#155000
1!
18
#156000
1#
0"
0!
13
07
08
#157000
1!
18
#158000
1"
0!
17
08
#159000
1!
18
#160000
1&
0%
0$
0#
0"
0!
1?
0@
02
03
07
08
1A
#161000
1!
18
#162000
1"
0!
17
08
#163000
1!
18
#164000
1#
0"
0!
13
07
08
#165000
1!
18
#166000
1"
0!
17
08
#167000
1!
18
#168000
1$
0#
0"
0!
12
03
07
08
#169000
1!
18
#170000
1"
0!
17
08
#171000
1!
18
#172000
1#
0"
0!
13
07
08
#173000
1!
18
#174000
1"
0!
17
08
#175000
1!
18
#176000
1%
0$
0#
0"
0!
1@
02
03
07
08
#177000
1!
18
#178000
1"
0!
17
08
#179000
1!
18
#180000
1#
0"
0!
13
07
08
#181000
1!
18
#182000
1"
0!
17
08
#183000
1!
18
#184000
1$
0#
0"
0!
12
03
07
08
#185000
1!
18
#186000
1"
0!
17
08
#187000
1!
18
#188000
1#
0"
0!
13
07
08
#189000
1!
18
#190000
1"
0!
17
08
#191000
1!
18
#192000
1'
0&
0%
0$
0#
0"
0!
1=
0?
0@
02
03
07
08
0A
#193000
1!
18
#194000
1"
0!
17
08
#195000
1!
18
#196000
1#
0"
0!
13
07
08
#197000
1!
18
#198000
1"
0!
17
08
#199000
1!
18
#200000
1$
0#
0"
0!
12
03
07
08
#201000
1!
18
#202000
1"
0!
17
08
#203000
1!
18
#204000
1#
0"
0!
13
07
08
#205000
1!
18
#206000
1"
0!
17
08
#207000
1!
18
#208000
1%
0$
0#
0"
0!
1@
02
03
07
08
#209000
1!
18
#210000
1"
0!
17
08
#211000
1!
18
#212000
1#
0"
0!
13
07
08
#213000
1!
18
#214000
1"
0!
17
08
#215000
1!
18
#216000
1$
0#
0"
0!
12
03
07
08
#217000
1!
18
#218000
1"
0!
17
08
#219000
1!
18
#220000
1#
0"
0!
13
07
08
#221000
1!
18
#222000
1"
0!
17
08
#223000
1!
18
#224000
1&
0%
0$
0#
0"
0!
1?
0@
02
03
07
08
1A
#225000
1!
18
#226000
1"
0!
17
08
#227000
1!
18
#228000
1#
0"
0!
13
07
08
#229000
1!
18
#230000
1"
0!
17
08
#231000
1!
18
#232000
1$
0#
0"
0!
12
03
07
08
#233000
1!
18
#234000
1"
0!
17
08
#235000
1!
18
#236000
1#
0"
0!
13
07
08
#237000
1!
18
#238000
1"
0!
17
08
#239000
1!
18
#240000
1%
0$
0#
0"
0!
1@
02
03
07
08
#241000
1!
18
#242000
1"
0!
17
08
#243000
1!
18
#244000
1#
0"
0!
13
07
08
#245000
1!
18
#246000
1"
0!
17
08
#247000
1!
18
#248000
1$
0#
0"
0!
12
03
07
08
#249000
1!
18
#250000
1"
0!
17
08
#251000
1!
18
#252000
1#
0"
0!
13
07
08
#253000
1!
18
#254000
1"
0!
17
08
#255000
1!
18
#256000
0(
0'
0&
0%
0$
0#
0"
0!
0<
0=
0?
0@
02
03
07
08
0>
0A
0B
01
0*
#257000
1!
18
#258000
1"
0!
17
08
#259000
1!
18
#260000
1#
0"
0!
13
07
08
#261000
1!
18
#262000
1"
0!
17
08
#263000
1!
18
#264000
1$
0#
0"
0!
12
03
07
08
#265000
1!
18
#266000
1"
0!
17
08
#267000
1!
18
#268000
1#
0"
0!
13
07
08
#269000
1!
18
#270000
1"
0!
17
08
#271000
1!
18
#272000
1%
0$
0#
0"
0!
1@
02
03
07
08
#273000
1!
18
#274000
1"
0!
17
08
#275000
1!
18
#276000
1#
0"
0!
13
07
08
#277000
1!
18
#278000
1"
0!
17
08
#279000
1!
18
#280000
1$
0#
0"
0!
12
03
07
08
#281000
1!
18
#282000
1"
0!
17
08
#283000
1!
18
#284000
1#
0"
0!
13
07
08
#285000
1!
18
#286000
1"
0!
17
08
#287000
1!
18
#288000
1&
0%
0$
0#
0"
0!
1?
0@
02
03
07
08
1A
#289000
1!
18
#290000
1"
0!
17
08
#291000
1!
18
#292000
1#
0"
0!
13
07
08
#293000
1!
18
#294000
1"
0!
17
08
#295000
1!
18
#296000
1$
0#
0"
0!
12
03
07
08
#297000
1!
18
#298000
1"
0!
17
08
#299000
1!
18
#300000
1#
0"
0!
13
07
08
#301000
1!
18
#302000
1"
0!
17
08
#303000
1!
18
#304000
1%
0$
0#
0"
0!
1@
02
03
07
08
#305000
1!
18
#306000
1"
0!
17
08
#307000
1!
18
#308000
1#
0"
0!
13
07
08
#309000
1!
18
#310000
1"
0!
17
08
#311000
1!
18
#312000
1$
0#
0"
0!
12
03
07
08
#313000
1!
18
#314000
1"
0!
17
08
#315000
1!
18
#316000
1#
0"
0!
13
07
08
#317000
1!
18
#318000
1"
0!
17
08
#319000
1!
18
#320000
1'
0&
0%
0$
0#
0"
0!
1=
0?
0@
02
03
07
08
0A
#321000
1!
18
#322000
1"
0!
17
08
#323000
1!
18
#324000
1#
0"
0!
13
07
08
#325000
1!
18
#326000
1"
0!
17
08
#327000
1!
18
#328000
1$
0#
0"
0!
12
03
07
08
#329000
1!
18
#330000
1"
0!
17
08
#331000
1!
18
#332000
1#
0"
0!
13
07
08
#333000
1!
18
#334000
1"
0!
17
08
#335000
1!
18
#336000
1%
0$
0#
0"
0!
1@
02
03
07
08
#337000
1!
18
#338000
1"
0!
17
08
#339000
1!
18
#340000
1#
0"
0!
13
07
08
#341000
1!
18
#342000
1"
0!
17
08
#343000
1!
18
#344000
1$
0#
0"
0!
12
03
07
08
#345000
1!
18
#346000
1"
0!
17
08
#347000
1!
18
#348000
1#
0"
0!
13
07
08
#349000
1!
18
#350000
1"
0!
17
08
#351000
1!
18
#352000
1&
0%
0$
0#
0"
0!
1?
0@
02
03
07
08
1A
#353000
1!
18
#354000
1"
0!
17
08
#355000
1!
18
#356000
1#
0"
0!
13
07
08
#357000
1!
18
#358000
1"
0!
17
08
#359000
1!
18
#360000
1$
0#
0"
0!
12
03
07
08
#361000
1!
18
#362000
1"
0!
17
08
#363000
1!
18
#364000
1#
0"
0!
13
07
08
#365000
1!
18
#366000
1"
0!
17
08
#367000
1!
18
#368000
1%
0$
0#
0"
0!
1@
02
03
07
08
#369000
1!
18
#370000
1"
0!
17
08
#371000
1!
18
#372000
1#
0"
0!
13
07
08
#373000
1!
18
#374000
1"
0!
17
08
#375000
1!
18
#376000
1$
0#
0"
0!
12
03
07
08
#377000
1!
18
#378000
1"
0!
17
08
#379000
1!
18
#380000
1#
0"
0!
13
07
08
#381000
1!
18
#382000
1"
0!
17
08
#383000
1!
18
#384000
1(
0'
0&
0%
0$
0#
0"
0!
1<
0=
0?
0@
02
03
07
08
1>
0A
1B
11
1*
#385000
1!
18
#386000
1"
0!
17
08
#387000
1!
18
#388000
1#
0"
0!
13
07
08
#389000
1!
18
#390000
1"
0!
17
08
#391000
1!
18
#392000
1$
0#
0"
0!
12
03
07
08
#393000
1!
18
#394000
1"
0!
17
08
#395000
1!
18
#396000
1#
0"
0!
13
07
08
#397000
1!
18
#398000
1"
0!
17
08
#399000
1!
18
#400000
1%
0$
0#
0"
0!
1@
02
03
07
08
#401000
1!
18
#402000
1"
0!
17
08
#403000
1!
18
#404000
1#
0"
0!
13
07
08
#405000
1!
18
#406000
1"
0!
17
08
#407000
1!
18
#408000
1$
0#
0"
0!
12
03
07
08
#409000
1!
18
#410000
1"
0!
17
08
#411000
1!
18
#412000
1#
0"
0!
13
07
08
#413000
1!
18
#414000
1"
0!
17
08
#415000
1!
18
#416000
1&
0%
0$
0#
0"
0!
1?
0@
02
03
07
08
1A
#417000
1!
18
#418000
1"
0!
17
08
#419000
1!
18
#420000
1#
0"
0!
13
07
08
#421000
1!
18
#422000
1"
0!
17
08
#423000
1!
18
#424000
1$
0#
0"
0!
12
03
07
08
#425000
1!
18
#426000
1"
0!
17
08
#427000
1!
18
#428000
1#
0"
0!
13
07
08
#429000
1!
18
#430000
1"
0!
17
08
#431000
1!
18
#432000
1%
0$
0#
0"
0!
1@
02
03
07
08
#433000
1!
18
#434000
1"
0!
17
08
#435000
1!
18
#436000
1#
0"
0!
13
07
08
#437000
1!
18
#438000
1"
0!
17
08
#439000
1!
18
#440000
1$
0#
0"
0!
12
03
07
08
#441000
1!
18
#442000
1"
0!
17
08
#443000
1!
18
#444000
1#
0"
0!
13
07
08
#445000
1!
18
#446000
1"
0!
17
08
#447000
1!
18
#448000
1'
0&
0%
0$
0#
0"
0!
1=
0?
0@
02
03
07
08
0A
#449000
1!
18
#450000
1"
0!
17
08
#451000
1!
18
#452000
1#
0"
0!
13
07
08
#453000
1!
18
#454000
1"
0!
17
08
#455000
1!
18
#456000
1$
0#
0"
0!
12
03
07
08
#457000
1!
18
#458000
1"
0!
17
08
#459000
1!
18
#460000
1#
0"
0!
13
07
08
#461000
1!
18
#462000
1"
0!
17
08
#463000
1!
18
#464000
1%
0$
0#
0"
0!
1@
02
03
07
08
#465000
1!
18
#466000
1"
0!
17
08
#467000
1!
18
#468000
1#
0"
0!
13
07
08
#469000
1!
18
#470000
1"
0!
17
08
#471000
1!
18
#472000
1$
0#
0"
0!
12
03
07
08
#473000
1!
18
#474000
1"
0!
17
08
#475000
1!
18
#476000
1#
0"
0!
13
07
08
#477000
1!
18
#478000
1"
0!
17
08
#479000
1!
18
#480000
1&
0%
0$
0#
0"
0!
1?
0@
02
03
07
08
1A
#481000
1!
18
#482000
1"
0!
17
08
#483000
1!
18
#484000
1#
0"
0!
13
07
08
#485000
1!
18
#486000
1"
0!
17
08
#487000
1!
18
#488000
1$
0#
0"
0!
12
03
07
08
#489000
1!
18
#490000
1"
0!
17
08
#491000
1!
18
#492000
1#
0"
0!
13
07
08
#493000
1!
18
#494000
1"
0!
17
08
#495000
1!
18
#496000
1%
0$
0#
0"
0!
1@
02
03
07
08
#497000
1!
18
#498000
1"
0!
17
08
#499000
1!
18
#500000
1#
0"
0!
13
07
08
#501000
1!
18
#502000
1"
0!
17
08
#503000
1!
18
#504000
1$
0#
0"
0!
12
03
07
08
#505000
1!
18
#506000
1"
0!
17
08
#507000
1!
18
#508000
1#
0"
0!
13
07
08
#509000
1!
18
#510000
1"
0!
17
08
#511000
1!
18
#512000
0(
0'
0&
0%
0$
0#
0"
0!
0<
0=
0?
0@
02
03
07
08
0>
0A
0B
01
0*
#513000
1!
18
#514000
1"
0!
17
08
#515000
1!
18
#516000
1#
0"
0!
13
07
08
#517000
1!
18
#518000
1"
0!
17
08
#519000
1!
18
#520000
1$
0#
0"
0!
12
03
07
08
#521000
1!
18
#522000
1"
0!
17
08
#523000
1!
18
#524000
1#
0"
0!
13
07
08
#525000
1!
18
#526000
1"
0!
17
08
#527000
1!
18
#528000
1%
0$
0#
0"
0!
1@
02
03
07
08
#529000
1!
18
#530000
1"
0!
17
08
#531000
1!
18
#532000
1#
0"
0!
13
07
08
#533000
1!
18
#534000
1"
0!
17
08
#535000
1!
18
#536000
1$
0#
0"
0!
12
03
07
08
#537000
1!
18
#538000
1"
0!
17
08
#539000
1!
18
#540000
1#
0"
0!
13
07
08
#541000
1!
18
#542000
1"
0!
17
08
#543000
1!
18
#544000
1&
0%
0$
0#
0"
0!
1?
0@
02
03
07
08
1A
#545000
1!
18
#546000
1"
0!
17
08
#547000
1!
18
#548000
1#
0"
0!
13
07
08
#549000
1!
18
#550000
1"
0!
17
08
#551000
1!
18
#552000
1$
0#
0"
0!
12
03
07
08
#553000
1!
18
#554000
1"
0!
17
08
#555000
1!
18
#556000
1#
0"
0!
13
07
08
#557000
1!
18
#558000
1"
0!
17
08
#559000
1!
18
#560000
1%
0$
0#
0"
0!
1@
02
03
07
08
#561000
1!
18
#562000
1"
0!
17
08
#563000
1!
18
#564000
1#
0"
0!
13
07
08
#565000
1!
18
#566000
1"
0!
17
08
#567000
1!
18
#568000
1$
0#
0"
0!
12
03
07
08
#569000
1!
18
#570000
1"
0!
17
08
#571000
1!
18
#572000
1#
0"
0!
13
07
08
#573000
1!
18
#574000
1"
0!
17
08
#575000
1!
18
#576000
1'
0&
0%
0$
0#
0"
0!
1=
0?
0@
02
03
07
08
0A
#577000
1!
18
#578000
1"
0!
17
08
#579000
1!
18
#580000
1#
0"
0!
13
07
08
#581000
1!
18
#582000
1"
0!
17
08
#583000
1!
18
#584000
1$
0#
0"
0!
12
03
07
08
#585000
1!
18
#586000
1"
0!
17
08
#587000
1!
18
#588000
1#
0"
0!
13
07
08
#589000
1!
18
#590000
1"
0!
17
08
#591000
1!
18
#592000
1%
0$
0#
0"
0!
1@
02
03
07
08
#593000
1!
18
#594000
1"
0!
17
08
#595000
1!
18
#596000
1#
0"
0!
13
07
08
#597000
1!
18
#598000
1"
0!
17
08
#599000
1!
18
#600000
1$
0#
0"
0!
12
03
07
08
#601000
1!
18
#602000
1"
0!
17
08
#603000
1!
18
#604000
1#
0"
0!
13
07
08
#605000
1!
18
#606000
1"
0!
17
08
#607000
1!
18
#608000
1&
0%
0$
0#
0"
0!
1?
0@
02
03
07
08
1A
#609000
1!
18
#610000
1"
0!
17
08
#611000
1!
18
#612000
1#
0"
0!
13
07
08
#613000
1!
18
#614000
1"
0!
17
08
#615000
1!
18
#616000
1$
0#
0"
0!
12
03
07
08
#617000
1!
18
#618000
1"
0!
17
08
#619000
1!
18
#620000
1#
0"
0!
13
07
08
#621000
1!
18
#622000
1"
0!
17
08
#623000
1!
18
#624000
1%
0$
0#
0"
0!
1@
02
03
07
08
#625000
1!
18
#626000
1"
0!
17
08
#627000
1!
18
#628000
1#
0"
0!
13
07
08
#629000
1!
18
#630000
1"
0!
17
08
#631000
1!
18
#632000
1$
0#
0"
0!
12
03
07
08
#633000
1!
18
#634000
1"
0!
17
08
#635000
1!
18
#636000
1#
0"
0!
13
07
08
#637000
1!
18
#638000
1"
0!
17
08
#639000
1!
18
#640000
1(
0'
0&
0%
0$
0#
0"
0!
1<
0=
0?
0@
02
03
07
08
1>
0A
1B
11
1*
#641000
1!
18
#642000
1"
0!
17
08
#643000
1!
18
#644000
1#
0"
0!
13
07
08
#645000
1!
18
#646000
1"
0!
17
08
#647000
1!
18
#648000
1$
0#
0"
0!
12
03
07
08
#649000
1!
18
#650000
1"
0!
17
08
#651000
1!
18
#652000
1#
0"
0!
13
07
08
#653000
1!
18
#654000
1"
0!
17
08
#655000
1!
18
#656000
1%
0$
0#
0"
0!
1@
02
03
07
08
#657000
1!
18
#658000
1"
0!
17
08
#659000
1!
18
#660000
1#
0"
0!
13
07
08
#661000
1!
18
#662000
1"
0!
17
08
#663000
1!
18
#664000
1$
0#
0"
0!
12
03
07
08
#665000
1!
18
#666000
1"
0!
17
08
#667000
1!
18
#668000
1#
0"
0!
13
07
08
#669000
1!
18
#670000
1"
0!
17
08
#671000
1!
18
#672000
1&
0%
0$
0#
0"
0!
1?
0@
02
03
07
08
1A
#673000
1!
18
#674000
1"
0!
17
08
#675000
1!
18
#676000
1#
0"
0!
13
07
08
#677000
1!
18
#678000
1"
0!
17
08
#679000
1!
18
#680000
1$
0#
0"
0!
12
03
07
08
#681000
1!
18
#682000
1"
0!
17
08
#683000
1!
18
#684000
1#
0"
0!
13
07
08
#685000
1!
18
#686000
1"
0!
17
08
#687000
1!
18
#688000
1%
0$
0#
0"
0!
1@
02
03
07
08
#689000
1!
18
#690000
1"
0!
17
08
#691000
1!
18
#692000
1#
0"
0!
13
07
08
#693000
1!
18
#694000
1"
0!
17
08
#695000
1!
18
#696000
1$
0#
0"
0!
12
03
07
08
#697000
1!
18
#698000
1"
0!
17
08
#699000
1!
18
#700000
1#
0"
0!
13
07
08
#701000
1!
18
#702000
1"
0!
17
08
#703000
1!
18
#704000
1'
0&
0%
0$
0#
0"
0!
1=
0?
0@
02
03
07
08
0A
#705000
1!
18
#706000
1"
0!
17
08
#707000
1!
18
#708000
1#
0"
0!
13
07
08
#709000
1!
18
#710000
1"
0!
17
08
#711000
1!
18
#712000
1$
0#
0"
0!
12
03
07
08
#713000
1!
18
#714000
1"
0!
17
08
#715000
1!
18
#716000
1#
0"
0!
13
07
08
#717000
1!
18
#718000
1"
0!
17
08
#719000
1!
18
#720000
1%
0$
0#
0"
0!
1@
02
03
07
08
#721000
1!
18
#722000
1"
0!
17
08
#723000
1!
18
#724000
1#
0"
0!
13
07
08
#725000
1!
18
#726000
1"
0!
17
08
#727000
1!
18
#728000
1$
0#
0"
0!
12
03
07
08
#729000
1!
18
#730000
1"
0!
17
08
#731000
1!
18
#732000
1#
0"
0!
13
07
08
#733000
1!
18
#734000
1"
0!
17
08
#735000
1!
18
#736000
1&
0%
0$
0#
0"
0!
1?
0@
02
03
07
08
1A
#737000
1!
18
#738000
1"
0!
17
08
#739000
1!
18
#740000
1#
0"
0!
13
07
08
#741000
1!
18
#742000
1"
0!
17
08
#743000
1!
18
#744000
1$
0#
0"
0!
12
03
07
08
#745000
1!
18
#746000
1"
0!
17
08
#747000
1!
18
#748000
1#
0"
0!
13
07
08
#749000
1!
18
#750000
1"
0!
17
08
#751000
1!
18
#752000
1%
0$
0#
0"
0!
1@
02
03
07
08
#753000
1!
18
#754000
1"
0!
17
08
#755000
1!
18
#756000
1#
0"
0!
13
07
08
#757000
1!
18
#758000
1"
0!
17
08
#759000
1!
18
#760000
1$
0#
0"
0!
12
03
07
08
#761000
1!
18
#762000
1"
0!
17
08
#763000
1!
18
#764000
1#
0"
0!
13
07
08
#765000
1!
18
#766000
1"
0!
17
08
#767000
1!
18
#768000
0(
0'
0&
0%
0$
0#
0"
0!
0<
0=
0?
0@
02
03
07
08
0>
0A
0B
01
0*
#769000
1!
18
#770000
1"
0!
17
08
#771000
1!
18
#772000
1#
0"
0!
13
07
08
#773000
1!
18
#774000
1"
0!
17
08
#775000
1!
18
#776000
1$
0#
0"
0!
12
03
07
08
#777000
1!
18
#778000
1"
0!
17
08
#779000
1!
18
#780000
1#
0"
0!
13
07
08
#781000
1!
18
#782000
1"
0!
17
08
#783000
1!
18
#784000
1%
0$
0#
0"
0!
1@
02
03
07
08
#785000
1!
18
#786000
1"
0!
17
08
#787000
1!
18
#788000
1#
0"
0!
13
07
08
#789000
1!
18
#790000
1"
0!
17
08
#791000
1!
18
#792000
1$
0#
0"
0!
12
03
07
08
#793000
1!
18
#794000
1"
0!
17
08
#795000
1!
18
#796000
1#
0"
0!
13
07
08
#797000
1!
18
#798000
1"
0!
17
08
#799000
1!
18
#800000
1&
0%
0$
0#
0"
0!
1?
0@
02
03
07
08
1A
#801000
1!
18
#802000
1"
0!
17
08
#803000
1!
18
#804000
1#
0"
0!
13
07
08
#805000
1!
18
#806000
1"
0!
17
08
#807000
1!
18
#808000
1$
0#
0"
0!
12
03
07
08
#809000
1!
18
#810000
1"
0!
17
08
#811000
1!
18
#812000
1#
0"
0!
13
07
08
#813000
1!
18
#814000
1"
0!
17
08
#815000
1!
18
#816000
1%
0$
0#
0"
0!
1@
02
03
07
08
#817000
1!
18
#818000
1"
0!
17
08
#819000
1!
18
#820000
1#
0"
0!
13
07
08
#821000
1!
18
#822000
1"
0!
17
08
#823000
1!
18
#824000
1$
0#
0"
0!
12
03
07
08
#825000
1!
18
#826000
1"
0!
17
08
#827000
1!
18
#828000
1#
0"
0!
13
07
08
#829000
1!
18
#830000
1"
0!
17
08
#831000
1!
18
#832000
1'
0&
0%
0$
0#
0"
0!
1=
0?
0@
02
03
07
08
0A
#833000
1!
18
#834000
1"
0!
17
08
#835000
1!
18
#836000
1#
0"
0!
13
07
08
#837000
1!
18
#838000
1"
0!
17
08
#839000
1!
18
#840000
1$
0#
0"
0!
12
03
07
08
#841000
1!
18
#842000
1"
0!
17
08
#843000
1!
18
#844000
1#
0"
0!
13
07
08
#845000
1!
18
#846000
1"
0!
17
08
#847000
1!
18
#848000
1%
0$
0#
0"
0!
1@
02
03
07
08
#849000
1!
18
#850000
1"
0!
17
08
#851000
1!
18
#852000
1#
0"
0!
13
07
08
#853000
1!
18
#854000
1"
0!
17
08
#855000
1!
18
#856000
1$
0#
0"
0!
12
03
07
08
#857000
1!
18
#858000
1"
0!
17
08
#859000
1!
18
#860000
1#
0"
0!
13
07
08
#861000
1!
18
#862000
1"
0!
17
08
#863000
1!
18
#864000
1&
0%
0$
0#
0"
0!
1?
0@
02
03
07
08
1A
#865000
1!
18
#866000
1"
0!
17
08
#867000
1!
18
#868000
1#
0"
0!
13
07
08
#869000
1!
18
#870000
1"
0!
17
08
#871000
1!
18
#872000
1$
0#
0"
0!
12
03
07
08
#873000
1!
18
#874000
1"
0!
17
08
#875000
1!
18
#876000
1#
0"
0!
13
07
08
#877000
1!
18
#878000
1"
0!
17
08
#879000
1!
18
#880000
1%
0$
0#
0"
0!
1@
02
03
07
08
#881000
1!
18
#882000
1"
0!
17
08
#883000
1!
18
#884000
1#
0"
0!
13
07
08
#885000
1!
18
#886000
1"
0!
17
08
#887000
1!
18
#888000
1$
0#
0"
0!
12
03
07
08
#889000
1!
18
#890000
1"
0!
17
08
#891000
1!
18
#892000
1#
0"
0!
13
07
08
#893000
1!
18
#894000
1"
0!
17
08
#895000
1!
18
#896000
1(
0'
0&
0%
0$
0#
0"
0!
1<
0=
0?
0@
02
03
07
08
1>
0A
1B
11
1*
#897000
1!
18
#898000
1"
0!
17
08
#899000
1!
18
#900000
1#
0"
0!
13
07
08
#901000
1!
18
#902000
1"
0!
17
08
#903000
1!
18
#904000
1$
0#
0"
0!
12
03
07
08
#905000
1!
18
#906000
1"
0!
17
08
#907000
1!
18
#908000
1#
0"
0!
13
07
08
#909000
1!
18
#910000
1"
0!
17
08
#911000
1!
18
#912000
1%
0$
0#
0"
0!
1@
02
03
07
08
#913000
1!
18
#914000
1"
0!
17
08
#915000
1!
18
#916000
1#
0"
0!
13
07
08
#917000
1!
18
#918000
1"
0!
17
08
#919000
1!
18
#920000
1$
0#
0"
0!
12
03
07
08
#921000
1!
18
#922000
1"
0!
17
08
#923000
1!
18
#924000
1#
0"
0!
13
07
08
#925000
1!
18
#926000
1"
0!
17
08
#927000
1!
18
#928000
1&
0%
0$
0#
0"
0!
1?
0@
02
03
07
08
1A
#929000
1!
18
#930000
1"
0!
17
08
#931000
1!
18
#932000
1#
0"
0!
13
07
08
#933000
1!
18
#934000
1"
0!
17
08
#935000
1!
18
#936000
1$
0#
0"
0!
12
03
07
08
#937000
1!
18
#938000
1"
0!
17
08
#939000
1!
18
#940000
1#
0"
0!
13
07
08
#941000
1!
18
#942000
1"
0!
17
08
#943000
1!
18
#944000
1%
0$
0#
0"
0!
1@
02
03
07
08
#945000
1!
18
#946000
1"
0!
17
08
#947000
1!
18
#948000
1#
0"
0!
13
07
08
#949000
1!
18
#950000
1"
0!
17
08
#951000
1!
18
#952000
1$
0#
0"
0!
12
03
07
08
#953000
1!
18
#954000
1"
0!
17
08
#955000
1!
18
#956000
1#
0"
0!
13
07
08
#957000
1!
18
#958000
1"
0!
17
08
#959000
1!
18
#960000
1'
0&
0%
0$
0#
0"
0!
1=
0?
0@
02
03
07
08
0A
#961000
1!
18
#962000
1"
0!
17
08
#963000
1!
18
#964000
1#
0"
0!
13
07
08
#965000
1!
18
#966000
1"
0!
17
08
#967000
1!
18
#968000
1$
0#
0"
0!
12
03
07
08
#969000
1!
18
#970000
1"
0!
17
08
#971000
1!
18
#972000
1#
0"
0!
13
07
08
#973000
1!
18
#974000
1"
0!
17
08
#975000
1!
18
#976000
1%
0$
0#
0"
0!
1@
02
03
07
08
#977000
1!
18
#978000
1"
0!
17
08
#979000
1!
18
#980000
1#
0"
0!
13
07
08
#981000
1!
18
#982000
1"
0!
17
08
#983000
1!
18
#984000
1$
0#
0"
0!
12
03
07
08
#985000
1!
18
#986000
1"
0!
17
08
#987000
1!
18
#988000
1#
0"
0!
13
07
08
#989000
1!
18
#990000
1"
0!
17
08
#991000
1!
18
#992000
1&
0%
0$
0#
0"
0!
1?
0@
02
03
07
08
1A
#993000
1!
18
